%YAML 1.1
%TAG !u! tag:unity3d.com,2011:
--- !u!21 &2100000
Material:
  serializedVersion: 6
  m_ObjectHideFlags: 0
  m_PrefabParentObject: {fileID: 0}
  m_PrefabInternal: {fileID: 0}
  m_Name: PW-WoodlandReflective
  m_Shader: {fileID: 4800000, guid: 3d6bc97a29b0a264c8bf02b641c7af96, type: 3}
  m_ShaderKeywords: 
  m_LightmapFlags: 5
  m_CustomRenderQueue: -1
  stringTagMap: {}
  m_SavedProperties:
    serializedVersion: 2
    m_TexEnvs:
      data:
        first:
          name: _MainTex
        second:
          m_Texture: {fileID: 0}
          m_Scale: {x: 1, y: 1}
          m_Offset: {x: 0, y: 0}
      data:
        first:
          name: _DiffuseIBL
        second:
          m_Texture: {fileID: 8900000, guid: 25b72d9d6b0d2074b916582e14bba30b, type: 2}
          m_Scale: {x: 1, y: 1}
          m_Offset: {x: 0, y: 0}
      data:
        first:
          name: _ReflectionCube
        second:
          m_Texture: {fileID: 8900000, guid: 000ad02bfa9cafc4fadddc2aa0a2ff0b, type: 2}
          m_Scale: {x: 1, y: 1}
          m_Offset: {x: 0, y: 0}
    m_Floats:
      data:
        first:
          name: _IBLBrightness
        second: .567567527
      data:
        first:
          name: _CubeMipLevel
        second: 1
      data:
        first:
          name: _ReflectionAmount
        second: .392857134
    m_Colors:
      data:
        first:
          name: _Color
        second: {r: .90196085, g: .90196085, b: .90196085, a: 1}
      data:
        first:
          name: _ReflectionTint
        second: {r: .650980413, g: .78039217, b: .996078432, a: 1}
      data:
        first:
          name: _DiffuseCol
        second: {r: 1, g: 1, b: 1, a: 1}
      data:
        first:
          name: _DiffuseTint
        second: {r: 1, g: 1, b: 1, a: 1}
