%YAML 1.1
%TAG !u! tag:unity3d.com,2011:
--- !u!114 &11400000
MonoBehaviour:
  m_ObjectHideFlags: 0
  m_PrefabParentObject: {fileID: 0}
  m_PrefabInternal: {fileID: 0}
  m_GameObject: {fileID: 0}
  m_Enabled: 1
  m_EditorHideFlags: 0
  m_Script: {fileID: 1783166299, guid: df55f395b91cd1e4c8a117abb7fb4631, type: 3}
  m_Name: Size B
  m_EditorClassIdentifier: 
  version: 302e302e352e30
  PosX: -1
  PosY: 0
  PosZ: -0.1
  PosOffsetX: 0
  PosOffsetY: 0
  PosOffsetZ: 0
  ResizeWidthTo: 0
  Width: 201
  Width_IsStyled: 1
  WidthMin: 0
  WidthMax: 1920
  WidthMinMax_IsStyled: 1
  WidthPercent: 0
  ResizeHeightTo: 1
  Height: 5
  Height_IsStyled: 1
  HeightMin: 5
  HeightMax: 1080
  HeightMinMax_IsStyled: 1
  HeightPercent: 0
  AlignHoriTo: 0
  AlignVertTo: 0
  PosAlignHoriVerti_IsStyled: 1
  Margin:
    top: -1
    bottom: 0
    left: -1
    right: -1
  Margin_IsStyled: 1
  Padding:
    top: 0
    bottom: 0
    left: 0
    right: 0
  Padding_IsStyled: 1
  ClipChildren: 0
  HideChildren: 0
  imageType: 1
  BlendType: 0
  planeType: 1
  isBackground: 0
  isInteractable: 1
  isVisible: 1
  showPressedCursorOnMouseDrag: 0
  RaycastThroughTranspAreas: 0
  RaycastThroughTranspCutoff: 1
  CanStealFocus: 1
  FocusIndex: 0
  HideImageZones: 1
  RaycastThroughAfterHandlingEvents: 0
  AntiAlias_QuadDepth: 0
  AntiAlias_QuadOverlap: 0
  AntiAlias_UVOffset_Hori: 0
  AntiAlias_UVOffset_Vert: 0
  Atlas: {fileID: 2800000, guid: 8d31a61f5593efd46a6654223f626716, type: 3}
  isDisabled: 0
  isToggledOn: 0
  ManuallySetToFocusedFromCode: 0
  hasToggleStates: 0
  states:
  - state: 0
    isStateEnabled: 1
    ReUseRegionsFromState: 0
    stateReUse: 1
    area:
      x: 52
      y: 65
      width: 8
      height: 8
    fullArea1:
      UseOwnSettings: 0
      From:
        r: 1
        g: 1
        b: 1
        a: 1
      To:
        r: 1
        g: 1
        b: 1
        a: 1
      GradientDir: 0
      GradientAngle: 90
      TextureRotation: 0
      ApplyGrayscale: 0
      GrayscaleBrightness: 0
      Desaturate: 0
      Brightness: 0
    fullArea2:
      UseOwnSettings: 0
      From:
        r: 1
        g: 1
        b: 1
        a: 1
      To:
        r: 1
        g: 1
        b: 1
        a: 1
      GradientDir: 0
      GradientAngle: 90
      TextureRotation: 0
      ApplyGrayscale: 0
      GrayscaleBrightness: 0
      Desaturate: 0
      Brightness: 0
    zones:
    - zone: 0
      area:
        x: 52
        y: 70
        width: 0
        height: 3
      shader:
        UseOwnSettings: 0
        From:
          r: 1
          g: 1
          b: 1
          a: 1
        To:
          r: 1
          g: 1
          b: 1
          a: 1
        GradientDir: 0
        GradientAngle: 90
        TextureRotation: 0
        ApplyGrayscale: 0
        GrayscaleBrightness: 0
        Desaturate: 0
        Brightness: 0
    - zone: 1
      area:
        x: 51
        y: 70
        width: 10
        height: 3
      shader:
        UseOwnSettings: 0
        From:
          r: 1
          g: 1
          b: 1
          a: 1
        To:
          r: 1
          g: 1
          b: 1
          a: 1
        GradientDir: 0
        GradientAngle: 90
        TextureRotation: 0
        ApplyGrayscale: 0
        GrayscaleBrightness: 0
        Desaturate: 0
        Brightness: 0
    - zone: 2
      area:
        x: 60
        y: 70
        width: 0
        height: 3
      shader:
        UseOwnSettings: 0
        From:
          r: 1
          g: 1
          b: 1
          a: 1
        To:
          r: 1
          g: 1
          b: 1
          a: 1
        GradientDir: 0
        GradientAngle: 90
        TextureRotation: 0
        ApplyGrayscale: 0
        GrayscaleBrightness: 0
        Desaturate: 0
        Brightness: 0
    - zone: 3
      area:
        x: 52
        y: 64
        width: 0
        height: 7
      shader:
        UseOwnSettings: 0
        From:
          r: 1
          g: 1
          b: 1
          a: 1
        To:
          r: 1
          g: 1
          b: 1
          a: 1
        GradientDir: 0
        GradientAngle: 90
        TextureRotation: 0
        ApplyGrayscale: 0
        GrayscaleBrightness: 0
        Desaturate: 0
        Brightness: 0
    - zone: 4
      area:
        x: 51
        y: 64
        width: 10
        height: 7
      shader:
        UseOwnSettings: 1
        From:
          r: 1
          g: 1
          b: 1
          a: 1
        To:
          r: 1
          g: 1
          b: 1
          a: 1
        GradientDir: 0
        GradientAngle: 90
        TextureRotation: 0
        ApplyGrayscale: 0
        GrayscaleBrightness: 0
        Desaturate: 0
        Brightness: 0
    - zone: 5
      area:
        x: 60
        y: 64
        width: 0
        height: 7
      shader:
        UseOwnSettings: 0
        From:
          r: 1
          g: 1
          b: 1
          a: 1
        To:
          r: 1
          g: 1
          b: 1
          a: 1
        GradientDir: 0
        GradientAngle: 90
        TextureRotation: 0
        ApplyGrayscale: 0
        GrayscaleBrightness: 0
        Desaturate: 0
        Brightness: 0
    - zone: 6
      area:
        x: 52
        y: 65
        width: 0
        height: 0
      shader:
        UseOwnSettings: 0
        From:
          r: 1
          g: 1
          b: 1
          a: 1
        To:
          r: 1
          g: 1
          b: 1
          a: 1
        GradientDir: 0
        GradientAngle: 90
        TextureRotation: 0
        ApplyGrayscale: 0
        GrayscaleBrightness: 0
        Desaturate: 0
        Brightness: 0
    - zone: 7
      area:
        x: 51
        y: 65
        width: 10
        height: 0
      shader:
        UseOwnSettings: 0
        From:
          r: 1
          g: 1
          b: 1
          a: 1
        To:
          r: 1
          g: 1
          b: 1
          a: 1
        GradientDir: 0
        GradientAngle: 90
        TextureRotation: 0
        ApplyGrayscale: 0
        GrayscaleBrightness: 0
        Desaturate: 0
        Brightness: 0
    - zone: 8
      area:
        x: 60
        y: 65
        width: 0
        height: 0
      shader:
        UseOwnSettings: 0
        From:
          r: 1
          g: 1
          b: 1
          a: 1
        To:
          r: 1
          g: 1
          b: 1
          a: 1
        GradientDir: 0
        GradientAngle: 90
        TextureRotation: 0
        ApplyGrayscale: 0
        GrayscaleBrightness: 0
        Desaturate: 0
        Brightness: 0
  - state: 1
    isStateEnabled: 0
    ReUseRegionsFromState: 0
    stateReUse: 0
    area:
      x: 40
      y: 40
      width: 0
      height: 0
    fullArea1:
      UseOwnSettings: 0
      From:
        r: 1
        g: 1
        b: 1
        a: 1
      To:
        r: 1
        g: 1
        b: 1
        a: 1
      GradientDir: 0
      GradientAngle: 90
      TextureRotation: 0
      ApplyGrayscale: 0
      GrayscaleBrightness: 0
      Desaturate: 0
      Brightness: 0
    fullArea2:
      UseOwnSettings: 0
      From:
        r: 1
        g: 1
        b: 1
        a: 1
      To:
        r: 1
        g: 1
        b: 1
        a: 1
      GradientDir: 0
      GradientAngle: 90
      TextureRotation: 0
      ApplyGrayscale: 0
      GrayscaleBrightness: 0
      Desaturate: 0
      Brightness: 0
    zones:
    - zone: 0
      area:
        x: 40
        y: 40
        width: 0
        height: 0
      shader:
        UseOwnSettings: 0
        From:
          r: 1
          g: 1
          b: 1
          a: 1
        To:
          r: 1
          g: 1
          b: 1
          a: 1
        GradientDir: 0
        GradientAngle: 90
        TextureRotation: 0
        ApplyGrayscale: 0
        GrayscaleBrightness: 0
        Desaturate: 0
        Brightness: 0
    - zone: 1
      area:
        x: 39
        y: 40
        width: 2
        height: 0
      shader:
        UseOwnSettings: 0
        From:
          r: 1
          g: 1
          b: 1
          a: 1
        To:
          r: 1
          g: 1
          b: 1
          a: 1
        GradientDir: 0
        GradientAngle: 90
        TextureRotation: 0
        ApplyGrayscale: 0
        GrayscaleBrightness: 0
        Desaturate: 0
        Brightness: 0
    - zone: 2
      area:
        x: 40
        y: 40
        width: 0
        height: 0
      shader:
        UseOwnSettings: 0
        From:
          r: 1
          g: 1
          b: 1
          a: 1
        To:
          r: 1
          g: 1
          b: 1
          a: 1
        GradientDir: 0
        GradientAngle: 90
        TextureRotation: 0
        ApplyGrayscale: 0
        GrayscaleBrightness: 0
        Desaturate: 0
        Brightness: 0
    - zone: 3
      area:
        x: 40
        y: 39
        width: 0
        height: 2
      shader:
        UseOwnSettings: 0
        From:
          r: 1
          g: 1
          b: 1
          a: 1
        To:
          r: 1
          g: 1
          b: 1
          a: 1
        GradientDir: 0
        GradientAngle: 90
        TextureRotation: 0
        ApplyGrayscale: 0
        GrayscaleBrightness: 0
        Desaturate: 0
        Brightness: 0
    - zone: 4
      area:
        x: 39
        y: 39
        width: 2
        height: 2
      shader:
        UseOwnSettings: 0
        From:
          r: 1
          g: 1
          b: 1
          a: 1
        To:
          r: 1
          g: 1
          b: 1
          a: 1
        GradientDir: 0
        GradientAngle: 90
        TextureRotation: 0
        ApplyGrayscale: 0
        GrayscaleBrightness: 0
        Desaturate: 0
        Brightness: 0
    - zone: 5
      area:
        x: 40
        y: 39
        width: 0
        height: 2
      shader:
        UseOwnSettings: 0
        From:
          r: 1
          g: 1
          b: 1
          a: 1
        To:
          r: 1
          g: 1
          b: 1
          a: 1
        GradientDir: 0
        GradientAngle: 90
        TextureRotation: 0
        ApplyGrayscale: 0
        GrayscaleBrightness: 0
        Desaturate: 0
        Brightness: 0
    - zone: 6
      area:
        x: 40
        y: 40
        width: 0
        height: 0
      shader:
        UseOwnSettings: 0
        From:
          r: 1
          g: 1
          b: 1
          a: 1
        To:
          r: 1
          g: 1
          b: 1
          a: 1
        GradientDir: 0
        GradientAngle: 90
        TextureRotation: 0
        ApplyGrayscale: 0
        GrayscaleBrightness: 0
        Desaturate: 0
        Brightness: 0
    - zone: 7
      area:
        x: 39
        y: 40
        width: 2
        height: 0
      shader:
        UseOwnSettings: 0
        From:
          r: 1
          g: 1
          b: 1
          a: 1
        To:
          r: 1
          g: 1
          b: 1
          a: 1
        GradientDir: 0
        GradientAngle: 90
        TextureRotation: 0
        ApplyGrayscale: 0
        GrayscaleBrightness: 0
        Desaturate: 0
        Brightness: 0
    - zone: 8
      area:
        x: 40
        y: 40
        width: 0
        height: 0
      shader:
        UseOwnSettings: 0
        From:
          r: 1
          g: 1
          b: 1
          a: 1
        To:
          r: 1
          g: 1
          b: 1
          a: 1
        GradientDir: 0
        GradientAngle: 90
        TextureRotation: 0
        ApplyGrayscale: 0
        GrayscaleBrightness: 0
        Desaturate: 0
        Brightness: 0
  - state: 2
    isStateEnabled: 1
    ReUseRegionsFromState: 0
    stateReUse: 0
    area:
      x: 40
      y: 40
      width: 0
      height: 0
    fullArea1:
      UseOwnSettings: 0
      From:
        r: 1
        g: 1
        b: 1
        a: 1
      To:
        r: 1
        g: 1
        b: 1
        a: 1
      GradientDir: 0
      GradientAngle: 90
      TextureRotation: 0
      ApplyGrayscale: 0
      GrayscaleBrightness: 0
      Desaturate: 0
      Brightness: 0
    fullArea2:
      UseOwnSettings: 0
      From:
        r: 1
        g: 1
        b: 1
        a: 1
      To:
        r: 1
        g: 1
        b: 1
        a: 1
      GradientDir: 0
      GradientAngle: 90
      TextureRotation: 0
      ApplyGrayscale: 0
      GrayscaleBrightness: 0
      Desaturate: 0
      Brightness: 0
    zones:
    - zone: 0
      area:
        x: 40
        y: 40
        width: 0
        height: 0
      shader:
        UseOwnSettings: 0
        From:
          r: 1
          g: 1
          b: 1
          a: 1
        To:
          r: 1
          g: 1
          b: 1
          a: 1
        GradientDir: 0
        GradientAngle: 90
        TextureRotation: 0
        ApplyGrayscale: 0
        GrayscaleBrightness: 0
        Desaturate: 0
        Brightness: 0
    - zone: 1
      area:
        x: 39
        y: 40
        width: 2
        height: 0
      shader:
        UseOwnSettings: 0
        From:
          r: 1
          g: 1
          b: 1
          a: 1
        To:
          r: 1
          g: 1
          b: 1
          a: 1
        GradientDir: 0
        GradientAngle: 90
        TextureRotation: 0
        ApplyGrayscale: 0
        GrayscaleBrightness: 0
        Desaturate: 0
        Brightness: 0
    - zone: 2
      area:
        x: 40
        y: 40
        width: 0
        height: 0
      shader:
        UseOwnSettings: 0
        From:
          r: 1
          g: 1
          b: 1
          a: 1
        To:
          r: 1
          g: 1
          b: 1
          a: 1
        GradientDir: 0
        GradientAngle: 90
        TextureRotation: 0
        ApplyGrayscale: 0
        GrayscaleBrightness: 0
        Desaturate: 0
        Brightness: 0
    - zone: 3
      area:
        x: 40
        y: 39
        width: 0
        height: 2
      shader:
        UseOwnSettings: 0
        From:
          r: 1
          g: 1
          b: 1
          a: 1
        To:
          r: 1
          g: 1
          b: 1
          a: 1
        GradientDir: 0
        GradientAngle: 90
        TextureRotation: 0
        ApplyGrayscale: 0
        GrayscaleBrightness: 0
        Desaturate: 0
        Brightness: 0
    - zone: 4
      area:
        x: 39
        y: 39
        width: 2
        height: 2
      shader:
        UseOwnSettings: 0
        From:
          r: 1
          g: 1
          b: 1
          a: 1
        To:
          r: 1
          g: 1
          b: 1
          a: 1
        GradientDir: 0
        GradientAngle: 90
        TextureRotation: 0
        ApplyGrayscale: 0
        GrayscaleBrightness: 0
        Desaturate: 0
        Brightness: 0
    - zone: 5
      area:
        x: 40
        y: 39
        width: 0
        height: 2
      shader:
        UseOwnSettings: 0
        From:
          r: 1
          g: 1
          b: 1
          a: 1
        To:
          r: 1
          g: 1
          b: 1
          a: 1
        GradientDir: 0
        GradientAngle: 90
        TextureRotation: 0
        ApplyGrayscale: 0
        GrayscaleBrightness: 0
        Desaturate: 0
        Brightness: 0
    - zone: 6
      area:
        x: 40
        y: 40
        width: 0
        height: 0
      shader:
        UseOwnSettings: 0
        From:
          r: 1
          g: 1
          b: 1
          a: 1
        To:
          r: 1
          g: 1
          b: 1
          a: 1
        GradientDir: 0
        GradientAngle: 90
        TextureRotation: 0
        ApplyGrayscale: 0
        GrayscaleBrightness: 0
        Desaturate: 0
        Brightness: 0
    - zone: 7
      area:
        x: 39
        y: 40
        width: 2
        height: 0
      shader:
        UseOwnSettings: 0
        From:
          r: 1
          g: 1
          b: 1
          a: 1
        To:
          r: 1
          g: 1
          b: 1
          a: 1
        GradientDir: 0
        GradientAngle: 90
        TextureRotation: 0
        ApplyGrayscale: 0
        GrayscaleBrightness: 0
        Desaturate: 0
        Brightness: 0
    - zone: 8
      area:
        x: 40
        y: 40
        width: 0
        height: 0
      shader:
        UseOwnSettings: 0
        From:
          r: 1
          g: 1
          b: 1
          a: 1
        To:
          r: 1
          g: 1
          b: 1
          a: 1
        GradientDir: 0
        GradientAngle: 90
        TextureRotation: 0
        ApplyGrayscale: 0
        GrayscaleBrightness: 0
        Desaturate: 0
        Brightness: 0
  - state: 3
    isStateEnabled: 1
    ReUseRegionsFromState: 0
    stateReUse: 0
    area:
      x: 40
      y: 40
      width: 0
      height: 0
    fullArea1:
      UseOwnSettings: 0
      From:
        r: 0.91764706
        g: 0.90127784
        b: 0.6621453
        a: 1
      To:
        r: 0.9176471
        g: 0.90196085
        b: 0.6627451
        a: 1
      GradientDir: 0
      GradientAngle: 90
      TextureRotation: 0
      ApplyGrayscale: 0
      GrayscaleBrightness: 0
      Desaturate: 0
      Brightness: 0
    fullArea2:
      UseOwnSettings: 0
      From:
        r: 0.9176471
        g: 0.90196085
        b: 0.6627451
        a: 1
      To:
        r: 0.9176471
        g: 0.90196085
        b: 0.6627451
        a: 1
      GradientDir: 0
      GradientAngle: 90
      TextureRotation: 0
      ApplyGrayscale: 0
      GrayscaleBrightness: 0
      Desaturate: 0
      Brightness: 0
    zones:
    - zone: 0
      area:
        x: 40
        y: 40
        width: 0
        height: 0
      shader:
        UseOwnSettings: 0
        From:
          r: 0.9176471
          g: 0.90196085
          b: 0.6627451
          a: 1
        To:
          r: 0.9176471
          g: 0.90196085
          b: 0.6627451
          a: 1
        GradientDir: 0
        GradientAngle: 90
        TextureRotation: 0
        ApplyGrayscale: 0
        GrayscaleBrightness: 0
        Desaturate: 0
        Brightness: 0
    - zone: 1
      area:
        x: 39
        y: 40
        width: 2
        height: 0
      shader:
        UseOwnSettings: 0
        From:
          r: 0.9176471
          g: 0.90196085
          b: 0.6627451
          a: 1
        To:
          r: 0.9176471
          g: 0.90196085
          b: 0.6627451
          a: 1
        GradientDir: 0
        GradientAngle: 90
        TextureRotation: 0
        ApplyGrayscale: 0
        GrayscaleBrightness: 0
        Desaturate: 0
        Brightness: 0
    - zone: 2
      area:
        x: 40
        y: 40
        width: 0
        height: 0
      shader:
        UseOwnSettings: 0
        From:
          r: 0.9176471
          g: 0.90196085
          b: 0.6627451
          a: 1
        To:
          r: 0.9176471
          g: 0.90196085
          b: 0.6627451
          a: 1
        GradientDir: 0
        GradientAngle: 90
        TextureRotation: 0
        ApplyGrayscale: 0
        GrayscaleBrightness: 0
        Desaturate: 0
        Brightness: 0
    - zone: 3
      area:
        x: 40
        y: 39
        width: 0
        height: 2
      shader:
        UseOwnSettings: 0
        From:
          r: 0.9176471
          g: 0.90196085
          b: 0.6627451
          a: 1
        To:
          r: 0.9176471
          g: 0.90196085
          b: 0.6627451
          a: 1
        GradientDir: 0
        GradientAngle: 90
        TextureRotation: 0
        ApplyGrayscale: 0
        GrayscaleBrightness: 0
        Desaturate: 0
        Brightness: 0
    - zone: 4
      area:
        x: 39
        y: 39
        width: 2
        height: 2
      shader:
        UseOwnSettings: 0
        From:
          r: 0.9176471
          g: 0.90196085
          b: 0.6627451
          a: 1
        To:
          r: 0.9176471
          g: 0.90196085
          b: 0.6627451
          a: 1
        GradientDir: 0
        GradientAngle: 90
        TextureRotation: 0
        ApplyGrayscale: 0
        GrayscaleBrightness: 0
        Desaturate: 0
        Brightness: 0
    - zone: 5
      area:
        x: 40
        y: 39
        width: 0
        height: 2
      shader:
        UseOwnSettings: 0
        From:
          r: 0.9176471
          g: 0.90196085
          b: 0.6627451
          a: 1
        To:
          r: 0.9176471
          g: 0.90196085
          b: 0.6627451
          a: 1
        GradientDir: 0
        GradientAngle: 90
        TextureRotation: 0
        ApplyGrayscale: 0
        GrayscaleBrightness: 0
        Desaturate: 0
        Brightness: 0
    - zone: 6
      area:
        x: 40
        y: 40
        width: 0
        height: 0
      shader:
        UseOwnSettings: 0
        From:
          r: 0.91764706
          g: 0.90127784
          b: 0.6621453
          a: 1
        To:
          r: 0.9176471
          g: 0.90196085
          b: 0.6627451
          a: 1
        GradientDir: 0
        GradientAngle: 90
        TextureRotation: 0
        ApplyGrayscale: 0
        GrayscaleBrightness: 0
        Desaturate: 0
        Brightness: 0
    - zone: 7
      area:
        x: 39
        y: 40
        width: 2
        height: 0
      shader:
        UseOwnSettings: 0
        From:
          r: 0.91764706
          g: 0.90127784
          b: 0.6621453
          a: 1
        To:
          r: 0.9176471
          g: 0.90196085
          b: 0.6627451
          a: 1
        GradientDir: 0
        GradientAngle: 90
        TextureRotation: 0
        ApplyGrayscale: 0
        GrayscaleBrightness: 0
        Desaturate: 0
        Brightness: 0
    - zone: 8
      area:
        x: 40
        y: 40
        width: 0
        height: 0
      shader:
        UseOwnSettings: 0
        From:
          r: 0.91764706
          g: 0.90127784
          b: 0.6621453
          a: 1
        To:
          r: 0.9176471
          g: 0.90196085
          b: 0.6627451
          a: 1
        GradientDir: 0
        GradientAngle: 90
        TextureRotation: 0
        ApplyGrayscale: 0
        GrayscaleBrightness: 0
        Desaturate: 0
        Brightness: 0
  - state: 4
    isStateEnabled: 0
    ReUseRegionsFromState: 0
    stateReUse: 0
    area:
      x: 40
      y: 40
      width: 0
      height: 0
    fullArea1:
      UseOwnSettings: 0
      From:
        r: 1
        g: 1
        b: 1
        a: 1
      To:
        r: 1
        g: 1
        b: 1
        a: 1
      GradientDir: 0
      GradientAngle: 90
      TextureRotation: 0
      ApplyGrayscale: 0
      GrayscaleBrightness: 0
      Desaturate: 0
      Brightness: 0
    fullArea2:
      UseOwnSettings: 0
      From:
        r: 1
        g: 1
        b: 1
        a: 1
      To:
        r: 1
        g: 1
        b: 1
        a: 1
      GradientDir: 0
      GradientAngle: 90
      TextureRotation: 0
      ApplyGrayscale: 0
      GrayscaleBrightness: 0
      Desaturate: 0
      Brightness: 0
    zones:
    - zone: 0
      area:
        x: 40
        y: 40
        width: 0
        height: 0
      shader:
        UseOwnSettings: 0
        From:
          r: 1
          g: 1
          b: 1
          a: 1
        To:
          r: 1
          g: 1
          b: 1
          a: 1
        GradientDir: 0
        GradientAngle: 90
        TextureRotation: 0
        ApplyGrayscale: 0
        GrayscaleBrightness: 0
        Desaturate: 0
        Brightness: 0
    - zone: 1
      area:
        x: 39
        y: 40
        width: 2
        height: 0
      shader:
        UseOwnSettings: 0
        From:
          r: 1
          g: 1
          b: 1
          a: 1
        To:
          r: 1
          g: 1
          b: 1
          a: 1
        GradientDir: 0
        GradientAngle: 90
        TextureRotation: 0
        ApplyGrayscale: 0
        GrayscaleBrightness: 0
        Desaturate: 0
        Brightness: 0
    - zone: 2
      area:
        x: 40
        y: 40
        width: 0
        height: 0
      shader:
        UseOwnSettings: 0
        From:
          r: 1
          g: 1
          b: 1
          a: 1
        To:
          r: 1
          g: 1
          b: 1
          a: 1
        GradientDir: 0
        GradientAngle: 90
        TextureRotation: 0
        ApplyGrayscale: 0
        GrayscaleBrightness: 0
        Desaturate: 0
        Brightness: 0
    - zone: 3
      area:
        x: 40
        y: 39
        width: 0
        height: 2
      shader:
        UseOwnSettings: 0
        From:
          r: 1
          g: 1
          b: 1
          a: 1
        To:
          r: 1
          g: 1
          b: 1
          a: 1
        GradientDir: 0
        GradientAngle: 90
        TextureRotation: 0
        ApplyGrayscale: 0
        GrayscaleBrightness: 0
        Desaturate: 0
        Brightness: 0
    - zone: 4
      area:
        x: 39
        y: 39
        width: 2
        height: 2
      shader:
        UseOwnSettings: 0
        From:
          r: 1
          g: 1
          b: 1
          a: 1
        To:
          r: 1
          g: 1
          b: 1
          a: 1
        GradientDir: 0
        GradientAngle: 90
        TextureRotation: 0
        ApplyGrayscale: 0
        GrayscaleBrightness: 0
        Desaturate: 0
        Brightness: 0
    - zone: 5
      area:
        x: 40
        y: 39
        width: 0
        height: 2
      shader:
        UseOwnSettings: 0
        From:
          r: 1
          g: 1
          b: 1
          a: 1
        To:
          r: 1
          g: 1
          b: 1
          a: 1
        GradientDir: 0
        GradientAngle: 90
        TextureRotation: 0
        ApplyGrayscale: 0
        GrayscaleBrightness: 0
        Desaturate: 0
        Brightness: 0
    - zone: 6
      area:
        x: 40
        y: 40
        width: 0
        height: 0
      shader:
        UseOwnSettings: 0
        From:
          r: 1
          g: 1
          b: 1
          a: 1
        To:
          r: 1
          g: 1
          b: 1
          a: 1
        GradientDir: 0
        GradientAngle: 90
        TextureRotation: 0
        ApplyGrayscale: 0
        GrayscaleBrightness: 0
        Desaturate: 0
        Brightness: 0
    - zone: 7
      area:
        x: 39
        y: 40
        width: 2
        height: 0
      shader:
        UseOwnSettings: 0
        From:
          r: 1
          g: 1
          b: 1
          a: 1
        To:
          r: 1
          g: 1
          b: 1
          a: 1
        GradientDir: 0
        GradientAngle: 90
        TextureRotation: 0
        ApplyGrayscale: 0
        GrayscaleBrightness: 0
        Desaturate: 0
        Brightness: 0
    - zone: 8
      area:
        x: 40
        y: 40
        width: 0
        height: 0
      shader:
        UseOwnSettings: 0
        From:
          r: 1
          g: 1
          b: 1
          a: 1
        To:
          r: 1
          g: 1
          b: 1
          a: 1
        GradientDir: 0
        GradientAngle: 90
        TextureRotation: 0
        ApplyGrayscale: 0
        GrayscaleBrightness: 0
        Desaturate: 0
        Brightness: 0
  - state: 5
    isStateEnabled: 1
    ReUseRegionsFromState: 0
    stateReUse: 0
    area:
      x: 40
      y: 40
      width: 0
      height: 0
    fullArea1:
      UseOwnSettings: 0
      From:
        r: 1
        g: 1
        b: 1
        a: 1
      To:
        r: 1
        g: 1
        b: 1
        a: 1
      GradientDir: 0
      GradientAngle: 90
      TextureRotation: 0
      ApplyGrayscale: 0
      GrayscaleBrightness: 0
      Desaturate: 0
      Brightness: 0
    fullArea2:
      UseOwnSettings: 0
      From:
        r: 1
        g: 1
        b: 1
        a: 1
      To:
        r: 1
        g: 1
        b: 1
        a: 1
      GradientDir: 0
      GradientAngle: 90
      TextureRotation: 0
      ApplyGrayscale: 0
      GrayscaleBrightness: 0
      Desaturate: 0
      Brightness: 0
    zones:
    - zone: 0
      area:
        x: 40
        y: 40
        width: 0
        height: 0
      shader:
        UseOwnSettings: 0
        From:
          r: 1
          g: 1
          b: 1
          a: 1
        To:
          r: 1
          g: 1
          b: 1
          a: 1
        GradientDir: 0
        GradientAngle: 90
        TextureRotation: 0
        ApplyGrayscale: 0
        GrayscaleBrightness: 0
        Desaturate: 0
        Brightness: 0
    - zone: 1
      area:
        x: 39
        y: 40
        width: 2
        height: 0
      shader:
        UseOwnSettings: 0
        From:
          r: 1
          g: 1
          b: 1
          a: 1
        To:
          r: 1
          g: 1
          b: 1
          a: 1
        GradientDir: 0
        GradientAngle: 90
        TextureRotation: 0
        ApplyGrayscale: 0
        GrayscaleBrightness: 0
        Desaturate: 0
        Brightness: 0
    - zone: 2
      area:
        x: 40
        y: 40
        width: 0
        height: 0
      shader:
        UseOwnSettings: 0
        From:
          r: 1
          g: 1
          b: 1
          a: 1
        To:
          r: 1
          g: 1
          b: 1
          a: 1
        GradientDir: 0
        GradientAngle: 90
        TextureRotation: 0
        ApplyGrayscale: 0
        GrayscaleBrightness: 0
        Desaturate: 0
        Brightness: 0
    - zone: 3
      area:
        x: 40
        y: 39
        width: 0
        height: 2
      shader:
        UseOwnSettings: 0
        From:
          r: 1
          g: 1
          b: 1
          a: 1
        To:
          r: 1
          g: 1
          b: 1
          a: 1
        GradientDir: 0
        GradientAngle: 90
        TextureRotation: 0
        ApplyGrayscale: 0
        GrayscaleBrightness: 0
        Desaturate: 0
        Brightness: 0
    - zone: 4
      area:
        x: 39
        y: 39
        width: 2
        height: 2
      shader:
        UseOwnSettings: 0
        From:
          r: 1
          g: 1
          b: 1
          a: 1
        To:
          r: 1
          g: 1
          b: 1
          a: 1
        GradientDir: 0
        GradientAngle: 90
        TextureRotation: 0
        ApplyGrayscale: 0
        GrayscaleBrightness: 0
        Desaturate: 0
        Brightness: 0
    - zone: 5
      area:
        x: 40
        y: 39
        width: 0
        height: 2
      shader:
        UseOwnSettings: 0
        From:
          r: 1
          g: 1
          b: 1
          a: 1
        To:
          r: 1
          g: 1
          b: 1
          a: 1
        GradientDir: 0
        GradientAngle: 90
        TextureRotation: 0
        ApplyGrayscale: 0
        GrayscaleBrightness: 0
        Desaturate: 0
        Brightness: 0
    - zone: 6
      area:
        x: 40
        y: 40
        width: 0
        height: 0
      shader:
        UseOwnSettings: 0
        From:
          r: 1
          g: 1
          b: 1
          a: 1
        To:
          r: 1
          g: 1
          b: 1
          a: 1
        GradientDir: 0
        GradientAngle: 90
        TextureRotation: 0
        ApplyGrayscale: 0
        GrayscaleBrightness: 0
        Desaturate: 0
        Brightness: 0
    - zone: 7
      area:
        x: 39
        y: 40
        width: 2
        height: 0
      shader:
        UseOwnSettings: 0
        From:
          r: 1
          g: 1
          b: 1
          a: 1
        To:
          r: 1
          g: 1
          b: 1
          a: 1
        GradientDir: 0
        GradientAngle: 90
        TextureRotation: 0
        ApplyGrayscale: 0
        GrayscaleBrightness: 0
        Desaturate: 0
        Brightness: 0
    - zone: 8
      area:
        x: 40
        y: 40
        width: 0
        height: 0
      shader:
        UseOwnSettings: 0
        From:
          r: 1
          g: 1
          b: 1
          a: 1
        To:
          r: 1
          g: 1
          b: 1
          a: 1
        GradientDir: 0
        GradientAngle: 90
        TextureRotation: 0
        ApplyGrayscale: 0
        GrayscaleBrightness: 0
        Desaturate: 0
        Brightness: 0
  - state: 6
    isStateEnabled: 0
    ReUseRegionsFromState: 0
    stateReUse: 0
    area:
      x: 40
      y: 40
      width: 0
      height: 0
    fullArea1:
      UseOwnSettings: 0
      From:
        r: 1
        g: 1
        b: 1
        a: 1
      To:
        r: 1
        g: 1
        b: 1
        a: 1
      GradientDir: 0
      GradientAngle: 90
      TextureRotation: 0
      ApplyGrayscale: 0
      GrayscaleBrightness: 0
      Desaturate: 0
      Brightness: 0
    fullArea2:
      UseOwnSettings: 0
      From:
        r: 1
        g: 1
        b: 1
        a: 1
      To:
        r: 1
        g: 1
        b: 1
        a: 1
      GradientDir: 0
      GradientAngle: 90
      TextureRotation: 0
      ApplyGrayscale: 0
      GrayscaleBrightness: 0
      Desaturate: 0
      Brightness: 0
    zones:
    - zone: 0
      area:
        x: 40
        y: 40
        width: 0
        height: 0
      shader:
        UseOwnSettings: 0
        From:
          r: 1
          g: 1
          b: 1
          a: 1
        To:
          r: 1
          g: 1
          b: 1
          a: 1
        GradientDir: 0
        GradientAngle: 90
        TextureRotation: 0
        ApplyGrayscale: 0
        GrayscaleBrightness: 0
        Desaturate: 0
        Brightness: 0
    - zone: 1
      area:
        x: 39
        y: 40
        width: 2
        height: 0
      shader:
        UseOwnSettings: 0
        From:
          r: 1
          g: 1
          b: 1
          a: 1
        To:
          r: 1
          g: 1
          b: 1
          a: 1
        GradientDir: 0
        GradientAngle: 90
        TextureRotation: 0
        ApplyGrayscale: 0
        GrayscaleBrightness: 0
        Desaturate: 0
        Brightness: 0
    - zone: 2
      area:
        x: 40
        y: 40
        width: 0
        height: 0
      shader:
        UseOwnSettings: 0
        From:
          r: 1
          g: 1
          b: 1
          a: 1
        To:
          r: 1
          g: 1
          b: 1
          a: 1
        GradientDir: 0
        GradientAngle: 90
        TextureRotation: 0
        ApplyGrayscale: 0
        GrayscaleBrightness: 0
        Desaturate: 0
        Brightness: 0
    - zone: 3
      area:
        x: 40
        y: 39
        width: 0
        height: 2
      shader:
        UseOwnSettings: 0
        From:
          r: 1
          g: 1
          b: 1
          a: 1
        To:
          r: 1
          g: 1
          b: 1
          a: 1
        GradientDir: 0
        GradientAngle: 90
        TextureRotation: 0
        ApplyGrayscale: 0
        GrayscaleBrightness: 0
        Desaturate: 0
        Brightness: 0
    - zone: 4
      area:
        x: 39
        y: 39
        width: 2
        height: 2
      shader:
        UseOwnSettings: 0
        From:
          r: 1
          g: 1
          b: 1
          a: 1
        To:
          r: 1
          g: 1
          b: 1
          a: 1
        GradientDir: 0
        GradientAngle: 90
        TextureRotation: 0
        ApplyGrayscale: 0
        GrayscaleBrightness: 0
        Desaturate: 0
        Brightness: 0
    - zone: 5
      area:
        x: 40
        y: 39
        width: 0
        height: 2
      shader:
        UseOwnSettings: 0
        From:
          r: 1
          g: 1
          b: 1
          a: 1
        To:
          r: 1
          g: 1
          b: 1
          a: 1
        GradientDir: 0
        GradientAngle: 90
        TextureRotation: 0
        ApplyGrayscale: 0
        GrayscaleBrightness: 0
        Desaturate: 0
        Brightness: 0
    - zone: 6
      area:
        x: 40
        y: 40
        width: 0
        height: 0
      shader:
        UseOwnSettings: 0
        From:
          r: 1
          g: 1
          b: 1
          a: 1
        To:
          r: 1
          g: 1
          b: 1
          a: 1
        GradientDir: 0
        GradientAngle: 90
        TextureRotation: 0
        ApplyGrayscale: 0
        GrayscaleBrightness: 0
        Desaturate: 0
        Brightness: 0
    - zone: 7
      area:
        x: 39
        y: 40
        width: 2
        height: 0
      shader:
        UseOwnSettings: 0
        From:
          r: 1
          g: 1
          b: 1
          a: 1
        To:
          r: 1
          g: 1
          b: 1
          a: 1
        GradientDir: 0
        GradientAngle: 90
        TextureRotation: 0
        ApplyGrayscale: 0
        GrayscaleBrightness: 0
        Desaturate: 0
        Brightness: 0
    - zone: 8
      area:
        x: 40
        y: 40
        width: 0
        height: 0
      shader:
        UseOwnSettings: 0
        From:
          r: 1
          g: 1
          b: 1
          a: 1
        To:
          r: 1
          g: 1
          b: 1
          a: 1
        GradientDir: 0
        GradientAngle: 90
        TextureRotation: 0
        ApplyGrayscale: 0
        GrayscaleBrightness: 0
        Desaturate: 0
        Brightness: 0
  - state: 7
    isStateEnabled: 1
    ReUseRegionsFromState: 0
    stateReUse: 0
    area:
      x: 40
      y: 40
      width: 0
      height: 0
    fullArea1:
      UseOwnSettings: 0
      From:
        r: 1
        g: 1
        b: 1
        a: 1
      To:
        r: 1
        g: 1
        b: 1
        a: 1
      GradientDir: 0
      GradientAngle: 90
      TextureRotation: 0
      ApplyGrayscale: 0
      GrayscaleBrightness: 0
      Desaturate: 0
      Brightness: 0
    fullArea2:
      UseOwnSettings: 0
      From:
        r: 1
        g: 1
        b: 1
        a: 1
      To:
        r: 1
        g: 1
        b: 1
        a: 1
      GradientDir: 0
      GradientAngle: 90
      TextureRotation: 0
      ApplyGrayscale: 0
      GrayscaleBrightness: 0
      Desaturate: 0
      Brightness: 0
    zones:
    - zone: 0
      area:
        x: 40
        y: 40
        width: 0
        height: 0
      shader:
        UseOwnSettings: 0
        From:
          r: 1
          g: 1
          b: 1
          a: 1
        To:
          r: 1
          g: 1
          b: 1
          a: 1
        GradientDir: 0
        GradientAngle: 90
        TextureRotation: 0
        ApplyGrayscale: 0
        GrayscaleBrightness: 0
        Desaturate: 0
        Brightness: 0
    - zone: 1
      area:
        x: 39
        y: 40
        width: 2
        height: 0
      shader:
        UseOwnSettings: 0
        From:
          r: 1
          g: 1
          b: 1
          a: 1
        To:
          r: 1
          g: 1
          b: 1
          a: 1
        GradientDir: 0
        GradientAngle: 90
        TextureRotation: 0
        ApplyGrayscale: 0
        GrayscaleBrightness: 0
        Desaturate: 0
        Brightness: 0
    - zone: 2
      area:
        x: 40
        y: 40
        width: 0
        height: 0
      shader:
        UseOwnSettings: 0
        From:
          r: 1
          g: 1
          b: 1
          a: 1
        To:
          r: 1
          g: 1
          b: 1
          a: 1
        GradientDir: 0
        GradientAngle: 90
        TextureRotation: 0
        ApplyGrayscale: 0
        GrayscaleBrightness: 0
        Desaturate: 0
        Brightness: 0
    - zone: 3
      area:
        x: 40
        y: 39
        width: 0
        height: 2
      shader:
        UseOwnSettings: 0
        From:
          r: 1
          g: 1
          b: 1
          a: 1
        To:
          r: 1
          g: 1
          b: 1
          a: 1
        GradientDir: 0
        GradientAngle: 90
        TextureRotation: 0
        ApplyGrayscale: 0
        GrayscaleBrightness: 0
        Desaturate: 0
        Brightness: 0
    - zone: 4
      area:
        x: 39
        y: 39
        width: 2
        height: 2
      shader:
        UseOwnSettings: 0
        From:
          r: 1
          g: 1
          b: 1
          a: 1
        To:
          r: 1
          g: 1
          b: 1
          a: 1
        GradientDir: 0
        GradientAngle: 90
        TextureRotation: 0
        ApplyGrayscale: 0
        GrayscaleBrightness: 0
        Desaturate: 0
        Brightness: 0
    - zone: 5
      area:
        x: 40
        y: 39
        width: 0
        height: 2
      shader:
        UseOwnSettings: 0
        From:
          r: 1
          g: 1
          b: 1
          a: 1
        To:
          r: 1
          g: 1
          b: 1
          a: 1
        GradientDir: 0
        GradientAngle: 90
        TextureRotation: 0
        ApplyGrayscale: 0
        GrayscaleBrightness: 0
        Desaturate: 0
        Brightness: 0
    - zone: 6
      area:
        x: 40
        y: 40
        width: 0
        height: 0
      shader:
        UseOwnSettings: 0
        From:
          r: 1
          g: 1
          b: 1
          a: 1
        To:
          r: 1
          g: 1
          b: 1
          a: 1
        GradientDir: 0
        GradientAngle: 90
        TextureRotation: 0
        ApplyGrayscale: 0
        GrayscaleBrightness: 0
        Desaturate: 0
        Brightness: 0
    - zone: 7
      area:
        x: 39
        y: 40
        width: 2
        height: 0
      shader:
        UseOwnSettings: 0
        From:
          r: 1
          g: 1
          b: 1
          a: 1
        To:
          r: 1
          g: 1
          b: 1
          a: 1
        GradientDir: 0
        GradientAngle: 90
        TextureRotation: 0
        ApplyGrayscale: 0
        GrayscaleBrightness: 0
        Desaturate: 0
        Brightness: 0
    - zone: 8
      area:
        x: 40
        y: 40
        width: 0
        height: 0
      shader:
        UseOwnSettings: 0
        From:
          r: 1
          g: 1
          b: 1
          a: 1
        To:
          r: 1
          g: 1
          b: 1
          a: 1
        GradientDir: 0
        GradientAngle: 90
        TextureRotation: 0
        ApplyGrayscale: 0
        GrayscaleBrightness: 0
        Desaturate: 0
        Brightness: 0
  - state: 8
    isStateEnabled: 1
    ReUseRegionsFromState: 0
    stateReUse: 0
    area:
      x: 40
      y: 40
      width: 0
      height: 0
    fullArea1:
      UseOwnSettings: 0
      From:
        r: 1
        g: 1
        b: 1
        a: 1
      To:
        r: 1
        g: 1
        b: 1
        a: 1
      GradientDir: 0
      GradientAngle: 90
      TextureRotation: 0
      ApplyGrayscale: 0
      GrayscaleBrightness: 0
      Desaturate: 0
      Brightness: 0
    fullArea2:
      UseOwnSettings: 0
      From:
        r: 1
        g: 1
        b: 1
        a: 1
      To:
        r: 1
        g: 1
        b: 1
        a: 1
      GradientDir: 0
      GradientAngle: 90
      TextureRotation: 0
      ApplyGrayscale: 0
      GrayscaleBrightness: 0
      Desaturate: 0
      Brightness: 0
    zones:
    - zone: 0
      area:
        x: 40
        y: 40
        width: 0
        height: 0
      shader:
        UseOwnSettings: 0
        From:
          r: 1
          g: 1
          b: 1
          a: 1
        To:
          r: 1
          g: 1
          b: 1
          a: 1
        GradientDir: 0
        GradientAngle: 90
        TextureRotation: 0
        ApplyGrayscale: 0
        GrayscaleBrightness: 0
        Desaturate: 0
        Brightness: 0
    - zone: 1
      area:
        x: 39
        y: 40
        width: 2
        height: 0
      shader:
        UseOwnSettings: 0
        From:
          r: 1
          g: 1
          b: 1
          a: 1
        To:
          r: 1
          g: 1
          b: 1
          a: 1
        GradientDir: 0
        GradientAngle: 90
        TextureRotation: 0
        ApplyGrayscale: 0
        GrayscaleBrightness: 0
        Desaturate: 0
        Brightness: 0
    - zone: 2
      area:
        x: 40
        y: 40
        width: 0
        height: 0
      shader:
        UseOwnSettings: 0
        From:
          r: 1
          g: 1
          b: 1
          a: 1
        To:
          r: 1
          g: 1
          b: 1
          a: 1
        GradientDir: 0
        GradientAngle: 90
        TextureRotation: 0
        ApplyGrayscale: 0
        GrayscaleBrightness: 0
        Desaturate: 0
        Brightness: 0
    - zone: 3
      area:
        x: 40
        y: 39
        width: 0
        height: 2
      shader:
        UseOwnSettings: 0
        From:
          r: 1
          g: 1
          b: 1
          a: 1
        To:
          r: 1
          g: 1
          b: 1
          a: 1
        GradientDir: 0
        GradientAngle: 90
        TextureRotation: 0
        ApplyGrayscale: 0
        GrayscaleBrightness: 0
        Desaturate: 0
        Brightness: 0
    - zone: 4
      area:
        x: 39
        y: 39
        width: 2
        height: 2
      shader:
        UseOwnSettings: 0
        From:
          r: 1
          g: 1
          b: 1
          a: 1
        To:
          r: 1
          g: 1
          b: 1
          a: 1
        GradientDir: 0
        GradientAngle: 90
        TextureRotation: 0
        ApplyGrayscale: 0
        GrayscaleBrightness: 0
        Desaturate: 0
        Brightness: 0
    - zone: 5
      area:
        x: 40
        y: 39
        width: 0
        height: 2
      shader:
        UseOwnSettings: 0
        From:
          r: 1
          g: 1
          b: 1
          a: 1
        To:
          r: 1
          g: 1
          b: 1
          a: 1
        GradientDir: 0
        GradientAngle: 90
        TextureRotation: 0
        ApplyGrayscale: 0
        GrayscaleBrightness: 0
        Desaturate: 0
        Brightness: 0
    - zone: 6
      area:
        x: 40
        y: 40
        width: 0
        height: 0
      shader:
        UseOwnSettings: 0
        From:
          r: 1
          g: 1
          b: 1
          a: 1
        To:
          r: 1
          g: 1
          b: 1
          a: 1
        GradientDir: 0
        GradientAngle: 90
        TextureRotation: 0
        ApplyGrayscale: 0
        GrayscaleBrightness: 0
        Desaturate: 0
        Brightness: 0
    - zone: 7
      area:
        x: 39
        y: 40
        width: 2
        height: 0
      shader:
        UseOwnSettings: 0
        From:
          r: 1
          g: 1
          b: 1
          a: 1
        To:
          r: 1
          g: 1
          b: 1
          a: 1
        GradientDir: 0
        GradientAngle: 90
        TextureRotation: 0
        ApplyGrayscale: 0
        GrayscaleBrightness: 0
        Desaturate: 0
        Brightness: 0
    - zone: 8
      area:
        x: 40
        y: 40
        width: 0
        height: 0
      shader:
        UseOwnSettings: 0
        From:
          r: 1
          g: 1
          b: 1
          a: 1
        To:
          r: 1
          g: 1
          b: 1
          a: 1
        GradientDir: 0
        GradientAngle: 90
        TextureRotation: 0
        ApplyGrayscale: 0
        GrayscaleBrightness: 0
        Desaturate: 0
        Brightness: 0
  - state: 9
    isStateEnabled: 0
    ReUseRegionsFromState: 0
    stateReUse: 0
    area:
      x: 40
      y: 40
      width: 0
      height: 0
    fullArea1:
      UseOwnSettings: 0
      From:
        r: 1
        g: 1
        b: 1
        a: 1
      To:
        r: 1
        g: 1
        b: 1
        a: 1
      GradientDir: 0
      GradientAngle: 90
      TextureRotation: 0
      ApplyGrayscale: 0
      GrayscaleBrightness: 0
      Desaturate: 0
      Brightness: 0
    fullArea2:
      UseOwnSettings: 0
      From:
        r: 1
        g: 1
        b: 1
        a: 1
      To:
        r: 1
        g: 1
        b: 1
        a: 1
      GradientDir: 0
      GradientAngle: 90
      TextureRotation: 0
      ApplyGrayscale: 0
      GrayscaleBrightness: 0
      Desaturate: 0
      Brightness: 0
    zones:
    - zone: 0
      area:
        x: 40
        y: 40
        width: 0
        height: 0
      shader:
        UseOwnSettings: 0
        From:
          r: 1
          g: 1
          b: 1
          a: 1
        To:
          r: 1
          g: 1
          b: 1
          a: 1
        GradientDir: 0
        GradientAngle: 90
        TextureRotation: 0
        ApplyGrayscale: 0
        GrayscaleBrightness: 0
        Desaturate: 0
        Brightness: 0
    - zone: 1
      area:
        x: 39
        y: 40
        width: 2
        height: 0
      shader:
        UseOwnSettings: 0
        From:
          r: 1
          g: 1
          b: 1
          a: 1
        To:
          r: 1
          g: 1
          b: 1
          a: 1
        GradientDir: 0
        GradientAngle: 90
        TextureRotation: 0
        ApplyGrayscale: 0
        GrayscaleBrightness: 0
        Desaturate: 0
        Brightness: 0
    - zone: 2
      area:
        x: 40
        y: 40
        width: 0
        height: 0
      shader:
        UseOwnSettings: 0
        From:
          r: 1
          g: 1
          b: 1
          a: 1
        To:
          r: 1
          g: 1
          b: 1
          a: 1
        GradientDir: 0
        GradientAngle: 90
        TextureRotation: 0
        ApplyGrayscale: 0
        GrayscaleBrightness: 0
        Desaturate: 0
        Brightness: 0
    - zone: 3
      area:
        x: 40
        y: 39
        width: 0
        height: 2
      shader:
        UseOwnSettings: 0
        From:
          r: 1
          g: 1
          b: 1
          a: 1
        To:
          r: 1
          g: 1
          b: 1
          a: 1
        GradientDir: 0
        GradientAngle: 90
        TextureRotation: 0
        ApplyGrayscale: 0
        GrayscaleBrightness: 0
        Desaturate: 0
        Brightness: 0
    - zone: 4
      area:
        x: 39
        y: 39
        width: 2
        height: 2
      shader:
        UseOwnSettings: 0
        From:
          r: 1
          g: 1
          b: 1
          a: 1
        To:
          r: 1
          g: 1
          b: 1
          a: 1
        GradientDir: 0
        GradientAngle: 90
        TextureRotation: 0
        ApplyGrayscale: 0
        GrayscaleBrightness: 0
        Desaturate: 0
        Brightness: 0
    - zone: 5
      area:
        x: 40
        y: 39
        width: 0
        height: 2
      shader:
        UseOwnSettings: 0
        From:
          r: 1
          g: 1
          b: 1
          a: 1
        To:
          r: 1
          g: 1
          b: 1
          a: 1
        GradientDir: 0
        GradientAngle: 90
        TextureRotation: 0
        ApplyGrayscale: 0
        GrayscaleBrightness: 0
        Desaturate: 0
        Brightness: 0
    - zone: 6
      area:
        x: 40
        y: 40
        width: 0
        height: 0
      shader:
        UseOwnSettings: 0
        From:
          r: 1
          g: 1
          b: 1
          a: 1
        To:
          r: 1
          g: 1
          b: 1
          a: 1
        GradientDir: 0
        GradientAngle: 90
        TextureRotation: 0
        ApplyGrayscale: 0
        GrayscaleBrightness: 0
        Desaturate: 0
        Brightness: 0
    - zone: 7
      area:
        x: 39
        y: 40
        width: 2
        height: 0
      shader:
        UseOwnSettings: 0
        From:
          r: 1
          g: 1
          b: 1
          a: 1
        To:
          r: 1
          g: 1
          b: 1
          a: 1
        GradientDir: 0
        GradientAngle: 90
        TextureRotation: 0
        ApplyGrayscale: 0
        GrayscaleBrightness: 0
        Desaturate: 0
        Brightness: 0
    - zone: 8
      area:
        x: 40
        y: 40
        width: 0
        height: 0
      shader:
        UseOwnSettings: 0
        From:
          r: 1
          g: 1
          b: 1
          a: 1
        To:
          r: 1
          g: 1
          b: 1
          a: 1
        GradientDir: 0
        GradientAngle: 90
        TextureRotation: 0
        ApplyGrayscale: 0
        GrayscaleBrightness: 0
        Desaturate: 0
        Brightness: 0
