# Blender MTL File: 'None'
# Material Count: 1

newmtl Road
Ns 19.607843
Ka 1.000000 1.000000 1.000000
Kd 0.470588 0.470588 0.470588
Ks 0.000000 0.000000 0.000000
Ke 0.000000 0.000000 0.000000
Ni 1.000000
d 1.000000
illum 1
map_Kd /Users/ben.langerak/Documents/Git/Genzyme/DrivingSimulation/Assets/Models/modelsStreets/Textures/StreetSmooth.jpg
