# Blender v2.76 (sub 0) OBJ File: ''
# www.blender.org
mtllib RoadMaybeFixedObj2.mtl
o Road_Rebuilt_Untitled
v 6.685787 -0.091811 -146.286469
v -3.118427 -0.091811 -148.979935
v 5.495882 -0.091810 -141.981308
v -4.304140 -0.091811 -144.689926
v 4.308072 -0.091810 -137.683716
v 0.739267 -0.091808 -124.785896
v -9.057406 -0.091809 -127.506622
v -0.453603 -0.091808 -120.489105
v -10.249954 -0.091808 -123.210945
v -1.641605 -0.091807 -116.199638
v -11.442123 -0.091808 -118.906487
v -8.724255 -0.091804 -90.574043
v -18.622478 -0.091805 -92.927361
v -10.606212 -0.091804 -85.685066
v -20.011988 -0.091804 -89.530891
v -13.007318 -0.091803 -81.041039
v -21.292343 -0.091804 -86.810364
v -17.318521 -0.091803 -76.591789
v -23.490175 -0.091804 -84.189583
v -24.266090 -0.091802 -74.338989
v -25.352921 -0.091804 -83.406235
v -30.503948 -0.091802 -74.645775
v -28.065184 -0.091804 -84.137390
v -33.489399 -0.091803 -75.564896
v -32.230751 -0.091804 -85.658691
v -38.107067 -0.091803 -76.327591
v -36.452763 -0.091804 -86.354607
v -42.918285 -0.091803 -77.121323
v -40.573158 -0.091804 -87.034454
v -46.042114 -0.091803 -76.887260
v -46.362839 -0.091804 -87.044807
v -50.710590 -0.091803 -76.733932
v -50.536114 -0.091804 -86.907768
v -53.760624 -0.091803 -76.127800
v -56.242249 -0.091804 -85.984337
v -58.307720 -0.091803 -75.067032
v -60.308853 -0.091804 -85.035667
v -61.256874 -0.091802 -74.100151
v -65.788643 -0.091803 -83.203888
v -65.509911 -0.091802 -72.172523
v -69.591995 -0.091803 -81.480064
v -68.330986 -0.091802 -70.852776
v -74.707909 -0.091803 -78.785583
v -72.216965 -0.091802 -68.067574
v -78.137268 -0.091803 -76.327583
v -76.199097 -0.091801 -65.213318
v -81.523010 -0.091802 -73.900917
v -78.214844 -0.091801 -62.808170
v -85.601471 -0.091802 -69.788025
v -81.407845 -0.091801 -59.398239
v -88.455437 -0.091802 -66.740189
v -83.103065 -0.091800 -56.787865
v -91.809715 -0.091801 -62.031277
v -85.568344 -0.091800 -52.822380
v -94.014412 -0.091801 -58.484955
v -86.932999 -0.091800 -50.034927
v -96.562798 -0.091800 -53.299599
v -88.574776 -0.091799 -45.671471
v -98.054916 -0.091799 -49.333839
v -89.836548 -0.091799 -42.089649
v -99.710243 -0.091799 -44.498333
v -97.580139 -0.091795 -12.414546
v -107.658447 -0.091795 -13.758300
v -98.342300 -0.091794 -7.798073
v -108.339607 -0.091795 -9.632581
v -98.742363 -0.091794 -4.714484
v -108.883026 -0.091794 -3.878039
v -98.906120 -0.091794 -0.505634
v -108.746414 -0.091794 0.295275
v -98.613548 -0.091793 3.085743
v -108.352669 -0.091793 6.071350
v -97.506966 -0.091793 7.831934
v -107.404076 -0.091792 10.139583
v -96.415359 -0.091792 12.513447
v -106.448692 -0.091792 14.237131
v -95.120491 -0.091792 15.350359
v -104.341415 -0.091791 19.623587
v -93.193230 -0.091791 19.603886
v -102.618095 -0.091791 23.427082
v -91.573013 -0.091791 22.252033
v -99.671692 -0.091790 28.397518
v -88.853401 -0.091790 26.047262
v -97.239395 -0.091790 31.791836
v -86.924728 -0.091790 28.483406
v -93.528488 -0.091789 36.222294
v -83.515907 -0.091790 31.676104
v -90.480843 -0.091789 39.076687
v -81.293045 -0.091790 33.874969
v -86.097008 -0.091788 42.854980
v -77.174103 -0.091789 36.436333
v -82.540611 -0.091788 45.066429
v -73.083176 -0.091789 38.980167
v -78.971214 -0.091788 47.286041
v -70.118568 -0.091789 40.066971
v -73.696823 -0.091788 49.578922
v -65.722168 -0.091789 41.747673
v -69.809105 -0.091787 51.065189
v -62.717598 -0.091789 42.386372
v -64.162445 -0.091787 52.447998
v -58.110325 -0.091788 43.147045
v -60.046059 -0.091787 53.127632
v -55.018223 -0.091788 43.421570
v -54.284649 -0.091787 53.565609
v -50.350998 -0.091788 43.268803
v -50.111137 -0.091787 53.428986
v -47.234833 -0.091788 43.168083
v -44.349083 -0.091787 52.930473
v -42.557327 -0.091789 42.077503
v -40.249687 -0.091787 51.974609
v -37.807129 -0.091789 40.969860
v -36.183254 -0.091787 51.026501
v -35.011395 -0.091789 39.556255
v -30.830688 -0.091788 48.819099
v -30.756746 -0.091789 37.628483
v -27.027336 -0.091788 47.095837
v -28.171818 -0.091789 35.899498
v -22.109671 -0.091788 44.057896
v -24.376495 -0.091790 33.179813
v -18.715385 -0.091789 41.625599
v -22.023146 -0.091790 31.156370
v -14.354621 -0.091789 37.835232
v -18.831135 -0.091790 27.748287
v -11.500116 -0.091789 34.787491
v -16.731567 -0.091791 25.448303
v -7.805781 -0.091790 30.339409
v -14.207529 -0.091791 21.389376
v -5.577446 -0.091790 26.755882
v -12.439005 -0.091791 18.142456
v -3.153804 -0.091791 22.623032
v -10.698528 -0.091792 14.238790
v -1.192771 -0.091791 17.833321
v -9.156737 -0.091792 10.098140
v 0.325140 -0.091792 13.756695
v -7.947937 -0.091793 6.464743
v 1.765560 -0.091792 9.456765
v -4.594969 -0.091794 0.315243
v 2.637737 -0.091793 7.503368
v -0.033989 -0.091794 -3.256883
v 5.073935 -0.091793 5.347556
v 5.993668 -0.091794 -5.059620
v 7.664338 -0.091793 4.908488
v 11.767316 -0.091794 -4.859130
v 10.483986 -0.091793 5.212609
v 16.925631 -0.091794 -3.934867
v 13.964648 -0.091793 5.792043
v 21.084492 -0.091794 -2.811946
v 18.435656 -0.091793 6.999238
v 25.389072 -0.091794 -1.649698
v 22.740236 -0.091793 8.161483
v 29.693628 -0.091794 -0.487449
v 27.044796 -0.091792 9.323734
v 33.998211 -0.091793 0.674812
v 31.349379 -0.091792 10.485995
v 38.302818 -0.091793 1.837072
v 35.653984 -0.091792 11.648256
v 42.659687 -0.091793 3.013450
v 39.908371 -0.091792 12.796968
v 46.691410 -0.091793 3.968576
v 44.552700 -0.091792 13.903616
v 51.172962 -0.091793 4.958767
v 48.771587 -0.091792 14.835783
v 54.670074 -0.091793 5.514318
v 54.068897 -0.091792 15.662135
v 59.269775 -0.091793 5.901385
v 58.325935 -0.091792 16.020365
v 62.824635 -0.091793 6.141358
v 63.666142 -0.091792 16.275543
v 67.477867 -0.091793 5.922727
v 67.954887 -0.091792 16.074005
v 72.191933 -0.091793 5.701184
v 72.207222 -0.091792 15.874203
v 75.694542 -0.091793 5.005440
v 77.487518 -0.091792 15.008513
v 80.235489 -0.091793 4.189198
v 81.694466 -0.091792 14.252317
v 83.653847 -0.091793 3.188174
v 86.848976 -0.091792 12.835973
v 88.049088 -0.091793 1.786325
v 90.921394 -0.091792 11.537087
v 91.362541 -0.091793 0.487759
v 95.896362 -0.091792 9.585769
v 95.537155 -0.091794 -1.475808
v 99.764313 -0.091793 7.766431
v 98.725616 -0.091794 -3.064126
v 104.507355 -0.091793 5.300628
v 102.609100 -0.091794 -5.556309
v 108.104950 -0.091793 2.991907
v 105.657539 -0.091794 -7.430966
v 112.560493 -0.091794 0.041616
v 109.265755 -0.091795 -10.472365
v 115.815468 -0.091794 -2.702083
v 112.651321 -0.091795 -13.326132
v 119.249031 -0.091794 -5.596310
v 116.087151 -0.091795 -16.119783
v 122.734535 -0.091795 -8.426816
v 120.684586 -0.091796 -19.109512
v 125.367653 -0.091795 -10.134929
v 126.994606 -0.091796 -21.030474
v 127.025276 -0.091795 -10.894189
v 133.138962 -0.091796 -20.550934
v 129.633316 -0.091795 -11.124577
v 139.120804 -0.091796 -17.458172
v 132.502441 -0.091795 -9.771276
v 142.223602 -0.091795 -14.885147
v 135.780197 -0.091794 -7.034355
v 146.077972 -0.091795 -11.516167
v 138.714462 -0.091794 -4.462766
v 147.905151 -0.091795 -10.719127
v 144.668777 -0.091794 -1.105350
v 150.940414 -0.091795 -9.618671
v 149.926407 -0.091793 0.482017
v 155.386047 -0.091795 -9.083550
v 154.429031 -0.091793 1.020502
v 159.615738 -0.091795 -9.008409
v 159.336548 -0.091793 1.109111
v 161.589569 -0.091795 -9.823812
v 165.789749 -0.091794 -0.624244
v 164.161911 -0.091795 -11.455134
v 170.455750 -0.091794 -3.478371
v 168.955719 -0.091795 -14.714194
v 172.168472 -0.091794 -4.853332
v 173.592926 -0.091796 -16.771790
v 174.706573 -0.091794 -6.901597
v 180.066376 -0.091796 -16.991760
v 178.871445 -0.091794 -6.898280
v 184.375244 -0.091796 -16.644037
v 183.459518 -0.091794 -6.528063
v 187.853790 -0.091796 -16.432629
v 188.502930 -0.091794 -6.308570
v 189.937119 -0.091796 -16.407587
v 193.668152 -0.091794 -7.315445
v 193.395828 -0.091796 -18.188204
v 199.772858 -0.091795 -10.296962
v 196.867737 -0.091796 -20.982597
v 203.307785 -0.091795 -13.136161
v 200.065353 -0.091796 -24.190033
v 206.759796 -0.091796 -16.548143
v 200.588577 -0.091797 -26.348425
v 209.962692 -0.091796 -22.412079
v 201.127548 -0.091797 -29.253088
v 211.162979 -0.091797 -27.765318
v 201.296341 -0.091797 -31.845106
v 211.550720 -0.091797 -32.162479
v 201.191956 -0.091798 -34.633595
v 210.582993 -0.091798 -39.917473
v 200.445221 -0.091798 -38.021091
v 208.191345 -0.091799 -44.602779
v 197.692917 -0.091799 -41.590969
v 205.408997 -0.091799 -48.185265
v 195.126740 -0.091799 -44.390278
v 202.021637 -0.091800 -51.796326
v 193.472260 -0.091799 -45.649853
v 196.341675 -0.091800 -55.335983
v 190.040421 -0.091799 -46.612629
v 191.037521 -0.091800 -56.729603
v 184.659653 -0.091799 -47.520046
v 186.404404 -0.091800 -57.384838
v 179.588562 -0.091799 -49.390446
v 183.854187 -0.091801 -58.752506
v 175.115204 -0.091800 -52.762157
v 181.319366 -0.091801 -60.931374
v 171.517624 -0.091800 -56.872379
v 179.685669 -0.091801 -62.893047
v 168.526184 -0.091801 -61.466404
v 178.071518 -0.091801 -65.115746
v 166.546722 -0.091802 -67.825974
v 176.701920 -0.091802 -66.936623
v 166.535309 -0.091802 -72.657127
v 176.635391 -0.091802 -71.628845
v 167.005676 -0.091803 -77.176414
v 177.083496 -0.091803 -76.028206
v 168.407578 -0.091803 -82.389565
v 178.111664 -0.091803 -79.563354
v 171.980255 -0.091804 -88.031128
v 179.411575 -0.091803 -81.156685
v 175.594101 -0.091804 -91.396828
v 182.188232 -0.091804 -83.679642
v 179.153015 -0.091805 -94.163391
v 185.692337 -0.091804 -86.384148
v 183.857010 -0.091805 -96.552185
v 188.589767 -0.091804 -87.762863
v 189.686295 -0.091805 -97.277977
v 191.786682 -0.091804 -87.995483
v 195.790771 -0.091805 -97.140747
v 195.337418 -0.091804 -87.694275
v 199.472305 -0.091805 -96.834473
v 200.180191 -0.091804 -87.100563
v 201.479324 -0.091805 -97.169785
v 206.628311 -0.091804 -87.945160
v 204.568665 -0.091805 -98.072685
v 211.282959 -0.091804 -90.441582
v 208.298447 -0.091806 -101.024284
v 214.828613 -0.091805 -93.254250
v 211.300934 -0.091806 -103.902763
v 218.353058 -0.091805 -96.647980
v 212.220291 -0.091806 -105.806465
v 221.735001 -0.091806 -102.413864
v 212.999313 -0.091807 -109.134842
v 223.005997 -0.091806 -107.622353
v 213.054596 -0.091807 -112.775414
v 223.211456 -0.091807 -112.871048
v 223.211868 -0.091810 -137.771515
v 223.212265 -0.091813 -162.740158
v 223.212692 -0.091816 -187.708786
v 223.213089 -0.091819 -212.677429
v 213.056244 -0.091819 -212.677841
v 213.055847 -0.091816 -187.708832
v 213.055420 -0.091813 -162.739822
v 213.055023 -0.091810 -137.770798
v 213.056534 -0.091821 -230.000290
v 223.213364 -0.091821 -229.999771
v -8.245754 -0.091809 -130.559387
v -5.507162 -0.091810 -140.377335
v -46.958027 -0.091810 -141.422028
v -44.234291 -0.091812 -151.217804
v -82.946220 -0.091813 -162.073257
v -85.639687 -0.091812 -152.269043
v 1.584480 -0.091809 -127.833672
v 7.727497 -0.091816 -187.677917
v 17.514847 -0.091816 -184.923920
v 2.946276 -0.091809 -132.758698
v -6.876458 -0.091810 -135.468369
v -7.946466 -0.091809 -131.620499
v 1.880018 -0.091809 -128.902817
v 3.949958 -0.091810 -136.394333
v -5.869026 -0.091810 -139.095993
v -5.607901 -0.091810 -135.118423
v -6.630623 -0.091809 -131.256577
v -4.643803 -0.091810 -138.758865
v 2.023179 -0.091809 -129.420532
v -6.472377 -0.091809 -131.854126
v 3.784328 -0.091810 -135.794373
v -4.798073 -0.091810 -138.176346
v -5.842988 -0.091809 -131.673828
v -4.023729 -0.091810 -137.961441
v -6.013131 -0.091809 -131.085800
v -4.902625 -0.091810 -134.923874
v -3.855744 -0.091810 -138.542038
vt -22.294783 1.000000
vt -22.294779 -0.000000
vt -20.243250 -0.000000
vt -20.243252 1.000000
vt -20.015301 -0.000000
vt -20.015303 1.000000
vt -19.787354 -0.000000
vt -19.787355 1.000000
vt 0.550577 0.998000
vt 0.550580 0.197960
vt 0.550580 0.135372
vt 0.550580 0.002000
vt 0.796582 0.002000
vt 0.796578 0.998000
vt -19.103512 1.000000
vt -19.103508 -0.000000
vt -18.875561 -0.000000
vt -18.875563 1.000000
vt -18.647612 -0.000000
vt -18.647615 1.000000
vt -17.279924 -0.000000
vt -17.279926 1.000000
vt -17.051975 -0.000000
vt -17.051977 1.000000
vt -16.824028 -0.000000
vt -16.824032 1.000000
vt -16.596079 -0.000000
vt -16.596085 1.000000
vt -16.627304 1.000000
vt -16.627298 -0.000000
vt -16.399351 -0.000000
vt -16.399355 1.000000
vt -16.375212 -0.002163
vt -16.122982 -0.004182
vt -16.133251 1.000713
vt -16.140188 1.000000
vt -16.140182 -0.000000
vt -15.912236 -0.000000
vt -15.912241 1.000000
vt -15.684288 -0.000000
vt -15.684293 1.000000
vt -15.456342 -0.000000
vt -15.456345 1.000000
vt -15.228395 -0.000000
vt -15.228398 1.000000
vt -15.000446 -0.000000
vt -15.000450 1.000000
vt -14.772498 -0.000000
vt -14.772503 1.000000
vt -14.544552 -0.000000
vt -14.544555 1.000000
vt -14.316604 -0.000000
vt -14.316607 1.000000
vt -14.088655 -0.000000
vt -14.088658 1.000000
vt -13.860707 -0.000000
vt -13.860712 1.000000
vt -13.632760 -0.000000
vt -13.632764 1.000000
vt -13.404812 -0.000000
vt -13.404817 1.000000
vt -13.176864 -0.000000
vt -13.176868 1.000000
vt -12.948915 -0.000000
vt -12.948920 1.000000
vt -12.720969 -0.000000
vt -12.720972 1.000000
vt -12.493021 -0.000000
vt -12.493026 1.000000
vt -12.265074 -0.000000
vt -12.265078 1.000000
vt -12.037126 -0.000000
vt -12.037129 1.000000
vt -11.809177 -0.000000
vt -11.809182 1.000000
vt -10.213543 -0.000000
vt -10.213548 1.000000
vt -9.985595 -0.000000
vt -9.985600 1.000000
vt -9.757647 -0.000000
vt -9.757651 1.000000
vt -9.529700 -0.000000
vt -9.529703 1.000000
vt -9.301752 -0.000000
vt -9.301756 1.000000
vt -9.073804 -0.000000
vt -9.073809 1.000000
vt -8.845857 -0.000000
vt -8.845860 1.000000
vt -8.617908 -0.000000
vt -8.617913 1.000000
vt -8.389960 -0.000000
vt -8.389965 1.000000
vt -8.162012 -0.000000
vt -8.162017 1.000000
vt -7.934066 -0.000000
vt -7.934069 1.000000
vt -7.706118 -0.000000
vt -7.706120 1.000000
vt -7.478169 -0.000000
vt -7.478174 1.000000
vt -7.250221 -0.000000
vt -7.250226 1.000000
vt -7.022274 -0.000000
vt -7.022278 1.000000
vt -6.794326 -0.000000
vt -6.794331 1.000000
vt -6.566379 -0.000000
vt -6.566382 1.000000
vt -6.338431 -0.000000
vt -6.338434 1.000000
vt -6.110483 -0.000000
vt -6.110488 1.000000
vt -5.882535 -0.000000
vt -5.882540 1.000000
vt -5.654588 -0.000000
vt -5.654592 1.000000
vt -5.426640 -0.000000
vt -5.426643 1.000000
vt -5.198691 -0.000000
vt -5.198696 1.000000
vt -4.970745 -0.000000
vt -4.970748 1.000000
vt -4.742797 -0.000000
vt -4.742800 1.000000
vt -4.514849 -0.000000
vt -4.514853 1.000000
vt -4.286901 -0.000000
vt -4.286905 1.000000
vt -4.058953 -0.000000
vt -4.058958 1.000000
vt -3.831005 -0.000000
vt -3.831009 1.000000
vt -3.603058 -0.000000
vt -3.603062 1.000000
vt -3.375110 -0.000000
vt -3.375115 1.000000
vt -3.147162 -0.000000
vt -3.147167 1.000000
vt -2.919215 -0.000000
vt -2.919219 1.000000
vt -2.691267 -0.000000
vt -2.691271 1.000000
vt -2.463319 -0.000000
vt -2.463323 1.000000
vt -2.235371 -0.000000
vt -2.235375 1.000000
vt -2.007423 -0.000000
vt -2.007427 1.000000
vt -1.779475 -0.000000
vt -1.779480 1.000000
vt -1.551527 -0.000000
vt -1.551532 1.000000
vt -1.323581 -0.000000
vt -1.323584 1.000000
vt -1.095634 -0.000000
vt -1.095636 1.000000
vt -0.867685 -0.000000
vt -0.867690 1.000000
vt -0.639738 -0.000000
vt -0.639742 1.000000
vt -0.411790 -0.000000
vt -0.411794 1.000000
vt -0.183842 -0.000000
vt -0.183846 1.000000
vt 0.044106 -0.000000
vt 0.044102 1.000000
vt 0.272054 -0.000000
vt 0.272050 1.000000
vt 0.500002 -0.000000
vt 0.499998 1.000000
vt 0.727950 -0.000000
vt 0.727946 1.000000
vt 0.955898 -0.000000
vt 0.955893 1.000000
vt 1.183846 -0.000000
vt 1.183841 1.000000
vt 1.411794 -0.000000
vt 1.411789 1.000000
vt 1.639741 -0.000000
vt 1.639737 1.000000
vt 1.867689 -0.000000
vt 1.867685 1.000000
vt 2.095637 -0.000000
vt 2.095631 1.000000
vt 2.323585 -0.000000
vt 2.323579 1.000000
vt 2.551533 -0.000000
vt 2.551527 1.000000
vt 2.779481 -0.000000
vt 2.779474 1.000000
vt 3.007429 -0.000000
vt 3.007422 1.000000
vt 3.235377 -0.000000
vt 3.235370 1.000000
vt 3.463322 -0.000000
vt 3.463318 1.000000
vt 3.691271 -0.000000
vt 3.691266 1.000000
vt 3.919219 -0.000000
vt 3.919214 1.000000
vt 4.147166 -0.000000
vt 4.147161 1.000000
vt 4.375114 -0.000000
vt 4.375110 1.000000
vt 4.603063 -0.000000
vt 4.603058 1.000000
vt 4.831010 -0.000000
vt 4.831005 1.000000
vt 5.058958 -0.000000
vt 5.058951 1.000000
vt 5.286906 -0.000000
vt 5.286900 1.000000
vt 5.514853 -0.000000
vt 5.514848 1.000000
vt 5.742802 -0.000000
vt 5.742795 1.000000
vt 5.970750 -0.000000
vt 5.970743 1.000000
vt 6.198695 -0.000000
vt 6.198691 1.000000
vt 6.426643 -0.000000
vt 6.426639 1.000000
vt 6.654592 -0.000000
vt 6.654587 1.000000
vt 6.882539 -0.000000
vt 6.882535 1.000000
vt 7.110487 -0.000000
vt 7.110482 1.000000
vt 7.338435 -0.000000
vt 7.338430 1.000000
vt 7.566382 -0.000000
vt 7.566379 1.000000
vt 7.794331 -0.000000
vt 7.794326 1.000000
vt 8.022279 -0.000000
vt 8.022271 1.000000
vt 8.250227 -0.000000
vt 8.250219 1.000000
vt 8.478175 -0.000000
vt 8.478168 1.000000
vt 8.706121 -0.000000
vt 8.706116 1.000000
vt 8.934070 -0.000000
vt 8.934063 1.000000
vt 9.162016 -0.000000
vt 9.162011 1.000000
vt 9.389964 -0.000000
vt 9.389959 1.000000
vt 9.617912 -0.000000
vt 9.617908 1.000000
vt 9.845860 -0.000000
vt 9.845856 1.000000
vt 10.073807 -0.000000
vt 10.073804 1.000000
vt 10.301754 -0.000000
vt 10.301750 1.000000
vt 10.529702 -0.000000
vt 10.529698 1.000000
vt 10.532008 -0.000000
vt 10.764569 -0.001154
vt 10.757646 1.000000
vt 10.757650 -0.000000
vt 10.985599 -0.000000
vt 10.985592 1.000000
vt 11.213547 -0.000000
vt 11.213540 1.000000
vt 11.441495 -0.000000
vt 11.441488 1.000000
vt 11.669443 -0.000000
vt 11.669436 1.000000
vt 11.897391 -0.000000
vt 11.897385 1.000000
vt 12.125337 -0.000000
vt 12.125332 1.000000
vt 12.353285 -0.000000
vt 12.353280 1.000000
vt 12.581233 -0.000000
vt 12.581228 1.000000
vt 12.809181 -0.000000
vt 12.809176 1.000000
vt 12.765423 -0.000000
vt 13.132849 -0.002735
vt 13.037125 1.000000
vt 13.037127 -0.000000
vt 13.265075 -0.000000
vt 13.265071 1.000000
vt 13.493023 -0.000000
vt 13.493019 1.000000
vt 13.720971 -0.000000
vt 13.720966 1.000000
vt 13.948919 -0.000000
vt 13.948913 1.000000
vt 14.176867 -0.000000
vt 14.176861 1.000000
vt 14.404816 -0.000000
vt 14.404809 1.000000
vt 14.632764 -0.000000
vt 14.632757 1.000000
vt 14.860712 -0.000000
vt 14.860705 1.000000
vt 15.088657 -0.000000
vt 15.088653 1.000000
vt 15.316608 -0.000000
vt 15.316599 1.000000
vt 15.544557 -0.000000
vt 15.544547 1.000000
vt 15.772502 -0.000000
vt 15.772495 1.000000
vt 16.000450 -0.000000
vt 16.000444 1.000000
vt 16.228399 -0.000000
vt 16.228390 1.000000
vt 16.456347 -0.000000
vt 16.456339 1.000000
vt 16.684290 -0.000000
vt 16.684286 1.000000
vt 16.678236 0.996974
vt 16.684290 -0.003026
vt 16.915264 -0.009076
vt 16.912233 1.006050
vt 19.603504 1.029011
vt 19.603504 0.005564
vt 20.603504 0.005569
vt 20.603504 1.029016
vt 22.032990 1.032012
vt 22.032990 0.002562
vt 23.032990 0.002568
vt 23.032990 1.032017
vt 20.880013 1.029011
vt 20.880013 0.005565
vt 21.880013 0.005570
vt 21.880013 1.029016
vt 18.050491 0.005572
vt 18.050491 1.029017
vt 17.050491 1.029012
vt 17.050491 0.005565
vt 19.326996 0.005569
vt 19.326996 1.029016
vt 18.326996 1.029009
vt 18.326996 0.005564
vt -22.294781 0.869736
vt -22.294781 0.500000
vt -22.294781 0.129074
vt 1.390057 0.002415
vt 1.390057 0.998206
vt 1.188759 0.998182
vt 1.188759 0.002403
vt 0.588021 0.884316
vt 0.464464 0.888664
vt 0.453593 0.505727
vt 0.594542 0.515874
vt 0.588716 0.829273
vt 0.465913 0.515873
vt 0.467363 0.135835
vt 0.600010 0.136560
vt 0.601450 0.194691
vt -0.187429 0.998000
vt -0.187425 0.002000
vt 0.058577 0.002000
vt 0.058576 0.126282
vt 0.058576 0.206220
vt 0.058573 0.998000
vt 0.091410 -0.215056
vt 0.091299 -0.293644
vt 0.297937 -0.289993
vt 0.297936 -0.218480
vt 0.523279 0.236004
vt 0.541608 0.195939
vt 0.505874 -0.285983
vt 0.506247 -0.222022
vt 0.049879 0.133529
vt 0.113352 0.187939
vt 0.099090 0.252320
vt 0.304575 0.998000
vt 0.304578 0.202142
vt 0.512889 0.198600
vt 0.517547 0.998000
vt 0.098051 0.205565
vt 0.099169 0.998000
vt 13.034393 -0.000000
vt -16.378685 1.002613
vn 0.000000 1.000000 -0.000000
usemtl Road
s 1
f 320/1/1 319/2/1 2/3/1 1/4/1
f 1/4/1 2/3/1 4/5/1 3/6/1
f 3/6/1 4/5/1 313/7/1 5/8/1
f 324/9/1 336/10/1 328/11/1 323/12/1 312/13/1 318/14/1
f 6/15/1 7/16/1 9/17/1 8/18/1
f 8/18/1 9/17/1 11/19/1 10/20/1
f 10/20/1 11/19/1 13/21/1 12/22/1
f 12/22/1 13/21/1 15/23/1 14/24/1
f 14/24/1 15/23/1 17/25/1 16/26/1
f 16/26/1 17/25/1 19/27/1 18/28/1
f 18/29/1 19/30/1 21/31/1 20/32/1
f 21/33/1 23/34/1 22/35/1
f 22/36/1 23/37/1 25/38/1 24/39/1
f 24/39/1 25/38/1 27/40/1 26/41/1
f 26/41/1 27/40/1 29/42/1 28/43/1
f 28/43/1 29/42/1 31/44/1 30/45/1
f 30/45/1 31/44/1 33/46/1 32/47/1
f 32/47/1 33/46/1 35/48/1 34/49/1
f 34/49/1 35/48/1 37/50/1 36/51/1
f 36/51/1 37/50/1 39/52/1 38/53/1
f 38/53/1 39/52/1 41/54/1 40/55/1
f 40/55/1 41/54/1 43/56/1 42/57/1
f 42/57/1 43/56/1 45/58/1 44/59/1
f 44/59/1 45/58/1 47/60/1
f 46/61/1 47/60/1 49/62/1
f 48/63/1 49/62/1 51/64/1 50/65/1
f 50/65/1 51/64/1 53/66/1 52/67/1
f 52/67/1 53/66/1 55/68/1 54/69/1
f 54/69/1 55/68/1 57/70/1 56/71/1
f 56/71/1 57/70/1 59/72/1 58/73/1
f 58/73/1 59/72/1 61/74/1 60/75/1
f 60/75/1 61/74/1 63/76/1 62/77/1
f 62/77/1 63/76/1 65/78/1 64/79/1
f 64/79/1 65/78/1 67/80/1 66/81/1
f 66/81/1 67/80/1 69/82/1 68/83/1
f 68/83/1 69/82/1 71/84/1 70/85/1
f 70/85/1 71/84/1 73/86/1 72/87/1
f 72/87/1 73/86/1 75/88/1 74/89/1
f 74/89/1 75/88/1 77/90/1 76/91/1
f 76/91/1 77/90/1 79/92/1 78/93/1
f 78/93/1 79/92/1 81/94/1 80/95/1
f 80/95/1 81/94/1 83/96/1 82/97/1
f 83/96/1 85/98/1 84/99/1
f 84/99/1 85/98/1 87/100/1 86/101/1
f 86/101/1 87/100/1 89/102/1 88/103/1
f 88/103/1 89/102/1 91/104/1 90/105/1
f 90/105/1 91/104/1 93/106/1 92/107/1
f 92/107/1 93/106/1 95/108/1 94/109/1
f 94/109/1 95/108/1 97/110/1 96/111/1
f 96/111/1 97/110/1 99/112/1 98/113/1
f 98/113/1 99/112/1 101/114/1 100/115/1
f 100/115/1 101/114/1 103/116/1 102/117/1
f 102/117/1 103/116/1 105/118/1 104/119/1
f 104/119/1 105/118/1 107/120/1 106/121/1
f 106/121/1 107/120/1 109/122/1 108/123/1
f 108/123/1 109/122/1 111/124/1 110/125/1
f 110/125/1 111/124/1 113/126/1 112/127/1
f 112/127/1 113/126/1 115/128/1 114/129/1
f 114/129/1 115/128/1 117/130/1 116/131/1
f 116/131/1 117/130/1 119/132/1 118/133/1
f 118/133/1 119/132/1 121/134/1 120/135/1
f 120/135/1 121/134/1 123/136/1 122/137/1
f 122/137/1 123/136/1 125/138/1 124/139/1
f 124/139/1 125/138/1 127/140/1 126/141/1
f 126/141/1 127/140/1 129/142/1 128/143/1
f 128/143/1 129/142/1 131/144/1 130/145/1
f 130/145/1 131/144/1 133/146/1 132/147/1
f 132/147/1 133/146/1 135/148/1 134/149/1
f 134/149/1 135/148/1 137/150/1 136/151/1
f 136/151/1 137/150/1 139/152/1 138/153/1
f 139/152/1 141/154/1 140/155/1
f 141/154/1 143/156/1 142/157/1
f 142/157/1 143/156/1 145/158/1 144/159/1
f 144/159/1 145/158/1 147/160/1 146/161/1
f 146/161/1 147/160/1 149/162/1 148/163/1
f 148/163/1 149/162/1 151/164/1 150/165/1
f 150/165/1 151/164/1 153/166/1 152/167/1
f 152/167/1 153/166/1 155/168/1 154/169/1
f 154/169/1 155/168/1 157/170/1 156/171/1
f 156/171/1 157/170/1 159/172/1 158/173/1
f 158/173/1 159/172/1 161/174/1 160/175/1
f 160/175/1 161/174/1 163/176/1 162/177/1
f 162/177/1 163/176/1 165/178/1 164/179/1
f 164/179/1 165/178/1 167/180/1 166/181/1
f 166/181/1 167/180/1 169/182/1 168/183/1
f 168/183/1 169/182/1 171/184/1 170/185/1
f 170/185/1 171/184/1 173/186/1 172/187/1
f 172/187/1 173/186/1 175/188/1 174/189/1
f 174/189/1 175/188/1 177/190/1 176/191/1
f 176/191/1 177/190/1 179/192/1 178/193/1
f 178/193/1 179/192/1 181/194/1 180/195/1
f 180/195/1 181/194/1 183/196/1 182/197/1
f 182/197/1 183/196/1 185/198/1 184/199/1
f 184/199/1 185/198/1 187/200/1 186/201/1
f 186/201/1 187/200/1 189/202/1 188/203/1
f 188/203/1 189/202/1 191/204/1 190/205/1
f 190/205/1 191/204/1 193/206/1 192/207/1
f 192/207/1 193/206/1 195/208/1 194/209/1
f 194/209/1 195/208/1 197/210/1 196/211/1
f 196/211/1 197/210/1 199/212/1 198/213/1
f 198/213/1 199/212/1 201/214/1 200/215/1
f 200/215/1 201/214/1 203/216/1 202/217/1
f 202/217/1 203/216/1 205/218/1 204/219/1
f 204/219/1 205/218/1 207/220/1 206/221/1
f 206/221/1 207/220/1 209/222/1 208/223/1
f 208/223/1 209/222/1 211/224/1 210/225/1
f 210/225/1 211/224/1 213/226/1 212/227/1
f 212/227/1 213/226/1 215/228/1 214/229/1
f 214/229/1 215/228/1 217/230/1 216/231/1
f 216/231/1 217/230/1 219/232/1 218/233/1
f 218/233/1 219/232/1 221/234/1 220/235/1
f 220/235/1 221/234/1 223/236/1 222/237/1
f 222/237/1 223/236/1 225/238/1 224/239/1
f 224/239/1 225/238/1 227/240/1 226/241/1
f 226/241/1 227/240/1 229/242/1 228/243/1
f 228/243/1 229/242/1 231/244/1 230/245/1
f 230/245/1 231/244/1 233/246/1 232/247/1
f 232/247/1 233/246/1 235/248/1 234/249/1
f 234/249/1 235/248/1 237/250/1 236/251/1
f 236/251/1 237/250/1 239/252/1 238/253/1
f 238/253/1 239/252/1 241/254/1 240/255/1
f 240/255/1 241/254/1 243/256/1 242/257/1
f 242/257/1 243/256/1 245/258/1 244/259/1
f 245/260/1 247/261/1 246/262/1
f 246/262/1 247/263/1 249/264/1 248/265/1
f 248/265/1 249/264/1 251/266/1 250/267/1
f 251/266/1 253/268/1 252/269/1
f 252/269/1 253/268/1 255/270/1 254/271/1
f 254/271/1 255/270/1 257/272/1 256/273/1
f 257/272/1 259/274/1 258/275/1
f 258/275/1 259/274/1 261/276/1 260/277/1
f 260/277/1 261/276/1 263/278/1 262/279/1
f 262/279/1 263/278/1 265/280/1 264/281/1
f 264/281/1 265/282/1 267/283/1
f 266/284/1 267/285/1 269/286/1 268/287/1
f 268/287/1 269/286/1 271/288/1 270/289/1
f 270/289/1 271/288/1 273/290/1 272/291/1
f 273/290/1 275/292/1 274/293/1
f 274/293/1 275/292/1 277/294/1 276/295/1
f 276/295/1 277/294/1 279/296/1 278/297/1
f 278/297/1 279/296/1 281/298/1 280/299/1
f 280/299/1 281/298/1 283/300/1 282/301/1
f 282/301/1 283/300/1 285/302/1 284/303/1
f 284/303/1 285/302/1 287/304/1 286/305/1
f 286/305/1 287/304/1 289/306/1 288/307/1
f 289/306/1 291/308/1 290/309/1
f 290/309/1 291/308/1 293/310/1 292/311/1
f 292/311/1 293/310/1 295/312/1 294/313/1
f 294/313/1 295/312/1 297/314/1 296/315/1
f 296/315/1 297/314/1 299/316/1 298/317/1
f 298/318/1 299/319/1 301/320/1 300/321/1
f 304/322/1 307/323/1 308/324/1 303/325/1
f 311/326/1 310/327/1 306/328/1 305/329/1
f 305/330/1 306/331/1 307/332/1 304/333/1
f 300/334/1 301/335/1 302/336/1 309/337/1
f 309/338/1 302/339/1 303/340/1 308/341/1
f 312/1/1 323/342/1 322/343/1 326/344/1 313/2/1 315/3/1 314/4/1
f 314/1/1 315/2/1 316/3/1 317/4/1
f 7/345/1 6/346/1 318/347/1 312/348/1
f 329/349/1 326/350/1 322/351/1 327/352/1 333/353/1
f 327/352/1 322/354/1 323/355/1 328/356/1 331/357/1
f 5/358/1 313/359/1 326/360/1 329/361/1 338/362/1 325/363/1
f 335/364/1 333/365/1 327/366/1 337/367/1
f 334/368/1 331/369/1 328/11/1 336/10/1
f 337/367/1 327/366/1 331/370/1 334/371/1
f 338/362/1 329/372/1 333/373/1 335/374/1
f 321/375/1 337/376/1 334/377/1 330/378/1
f 325/363/1 338/362/1 335/379/1 332/380/1
f 332/380/1 335/379/1 337/376/1 321/375/1
f 330/378/1 334/377/1 336/10/1 324/9/1
f 244/259/1 245/260/1 246/262/1
f 250/267/1 251/266/1 252/269/1
f 256/273/1 257/272/1 258/275/1
f 266/284/1 264/281/1 267/381/1
f 272/291/1 273/290/1 274/293/1
f 288/307/1 289/306/1 290/309/1
f 138/153/1 139/152/1 140/155/1
f 140/155/1 141/154/1 142/157/1
f 82/97/1 83/96/1 84/99/1
f 48/63/1 46/61/1 49/62/1
f 46/61/1 44/59/1 47/60/1
f 20/382/1 21/33/1 22/35/1
