%YAML 1.1
%TAG !u! tag:unity3d.com,2011:
--- !u!114 &11400000
MonoBehaviour:
  m_ObjectHideFlags: 0
  m_PrefabParentObject: {fileID: 0}
  m_PrefabInternal: {fileID: 0}
  m_GameObject: {fileID: 0}
  m_Enabled: 1
  m_EditorHideFlags: 0
  m_Script: {fileID: -2016425007, guid: df55f395b91cd1e4c8a117abb7fb4631, type: 3}
  m_Name: bf.Dance.48
  m_EditorClassIdentifier: 
  Face: 44616e63652e3438
  Size: 48
  isBold: 1
  isItalic: 0
  PaddingLeft: 1
  PaddingRight: 1
  PaddingTop: 1
  PaddingBottom: 1
  lineHeight: 58
  Base: 36
  scaleW: 512
  scaleH: 380
  packed: 0
  pages: 1
  page1: {fileID: 2800000, guid: 5c7b169ff4c04b2489724ca42bdfce7e, type: 3}
  Chars:
  - ID: 102
    Char: 66
    x: 1
    y: 1
    width: 37
    height: 61
    xOffset: -6
    yOffset: 1
    xAdvance: 16
    page: 0
    chnl: 15
  - ID: 89
    Char: 59
    x: 39
    y: 1
    width: 49
    height: 58
    xOffset: -1
    yOffset: 0
    xAdvance: 34
    page: 0
    chnl: 15
  - ID: 35
    Char: 23
    x: 89
    y: 1
    width: 46
    height: 56
    xOffset: -1
    yOffset: 1
    xAdvance: 35
    page: 0
    chnl: 15
  - ID: 92
    Char: 5c
    x: 136
    y: 1
    width: 28
    height: 55
    xOffset: 6
    yOffset: 1
    xAdvance: 29
    page: 0
    chnl: 15
  - ID: 47
    Char: 2f
    x: 165
    y: 1
    width: 37
    height: 55
    xOffset: -5
    yOffset: 1
    xAdvance: 17
    page: 0
    chnl: 15
  - ID: 36
    Char: 24
    x: 203
    y: 1
    width: 39
    height: 55
    xOffset: -2
    yOffset: 1
    xAdvance: 27
    page: 0
    chnl: 15
  - ID: 82
    Char: 52
    x: 243
    y: 1
    width: 42
    height: 55
    xOffset: -1
    yOffset: 0
    xAdvance: 30
    page: 0
    chnl: 15
  - ID: 81
    Char: 51
    x: 286
    y: 1
    width: 45
    height: 54
    xOffset: -1
    yOffset: 0
    xAdvance: 35
    page: 0
    chnl: 15
  - ID: 38
    Char: 26
    x: 332
    y: 1
    width: 46
    height: 53
    xOffset: -2
    yOffset: 0
    xAdvance: 32
    page: 0
    chnl: 15
  - ID: 79
    Char: 4f
    x: 379
    y: 1
    width: 44
    height: 53
    xOffset: -1
    yOffset: 0
    xAdvance: 31
    page: 0
    chnl: 15
  - ID: 84
    Char: 54
    x: 424
    y: 1
    width: 42
    height: 53
    xOffset: 2
    yOffset: 0
    xAdvance: 26
    page: 0
    chnl: 15
  - ID: 85
    Char: 55
    x: 1
    y: 64
    width: 48
    height: 53
    xOffset: -1
    yOffset: 0
    xAdvance: 36
    page: 0
    chnl: 15
  - ID: 57
    Char: 39
    x: 50
    y: 64
    width: 38
    height: 53
    xOffset: 2
    yOffset: 0
    xAdvance: 29
    page: 0
    chnl: 15
  - ID: 73
    Char: 49
    x: 89
    y: 64
    width: 42
    height: 53
    xOffset: -3
    yOffset: 0
    xAdvance: 24
    page: 0
    chnl: 15
  - ID: 124
    Char: 7c
    x: 132
    y: 64
    width: 20
    height: 53
    xOffset: 2
    yOffset: 2
    xAdvance: 14
    page: 0
    chnl: 15
  - ID: 93
    Char: 5d
    x: 153
    y: 64
    width: 34
    height: 53
    xOffset: -1
    yOffset: 0
    xAdvance: 22
    page: 0
    chnl: 15
  - ID: 48
    Char: 30
    x: 188
    y: 64
    width: 42
    height: 53
    xOffset: 0
    yOffset: 0
    xAdvance: 32
    page: 0
    chnl: 15
  - ID: 91
    Char: 5b
    x: 231
    y: 64
    width: 33
    height: 53
    xOffset: 0
    yOffset: 1
    xAdvance: 21
    page: 0
    chnl: 15
  - ID: 50
    Char: 32
    x: 265
    y: 64
    width: 39
    height: 53
    xOffset: -2
    yOffset: 0
    xAdvance: 29
    page: 0
    chnl: 15
  - ID: 51
    Char: 33
    x: 305
    y: 64
    width: 37
    height: 53
    xOffset: -2
    yOffset: 0
    xAdvance: 26
    page: 0
    chnl: 15
  - ID: 90
    Char: 5a
    x: 343
    y: 64
    width: 47
    height: 53
    xOffset: -2
    yOffset: 0
    xAdvance: 33
    page: 0
    chnl: 15
  - ID: 88
    Char: 58
    x: 391
    y: 64
    width: 45
    height: 53
    xOffset: 0
    yOffset: 1
    xAdvance: 34
    page: 0
    chnl: 15
  - ID: 54
    Char: 36
    x: 437
    y: 64
    width: 38
    height: 53
    xOffset: 0
    yOffset: 0
    xAdvance: 28
    page: 0
    chnl: 15
  - ID: 83
    Char: 53
    x: 1
    y: 119
    width: 39
    height: 53
    xOffset: -3
    yOffset: 0
    xAdvance: 27
    page: 0
    chnl: 15
  - ID: 56
    Char: 38
    x: 41
    y: 119
    width: 36
    height: 53
    xOffset: -1
    yOffset: 0
    xAdvance: 27
    page: 0
    chnl: 15
  - ID: 71
    Char: 47
    x: 78
    y: 119
    width: 40
    height: 53
    xOffset: -1
    yOffset: 0
    xAdvance: 28
    page: 0
    chnl: 15
  - ID: 80
    Char: 50
    x: 119
    y: 119
    width: 42
    height: 53
    xOffset: 0
    yOffset: 0
    xAdvance: 27
    page: 0
    chnl: 15
  - ID: 74
    Char: 4a
    x: 162
    y: 119
    width: 41
    height: 53
    xOffset: -4
    yOffset: 0
    xAdvance: 21
    page: 0
    chnl: 15
  - ID: 69
    Char: 45
    x: 204
    y: 119
    width: 40
    height: 53
    xOffset: -3
    yOffset: 0
    xAdvance: 26
    page: 0
    chnl: 15
  - ID: 68
    Char: 44
    x: 245
    y: 119
    width: 43
    height: 53
    xOffset: 1
    yOffset: 0
    xAdvance: 33
    page: 0
    chnl: 15
  - ID: 67
    Char: 43
    x: 289
    y: 119
    width: 40
    height: 53
    xOffset: -1
    yOffset: 0
    xAdvance: 27
    page: 0
    chnl: 15
  - ID: 66
    Char: 42
    x: 330
    y: 119
    width: 41
    height: 53
    xOffset: 0
    yOffset: 0
    xAdvance: 31
    page: 0
    chnl: 15
  - ID: 55
    Char: 37
    x: 372
    y: 119
    width: 36
    height: 52
    xOffset: 1
    yOffset: 1
    xAdvance: 21
    page: 0
    chnl: 15
  - ID: 53
    Char: 35
    x: 409
    y: 119
    width: 38
    height: 52
    xOffset: -3
    yOffset: 1
    xAdvance: 25
    page: 0
    chnl: 15
  - ID: 52
    Char: 34
    x: 448
    y: 119
    width: 36
    height: 52
    xOffset: -2
    yOffset: 1
    xAdvance: 24
    page: 0
    chnl: 15
  - ID: 49
    Char: 31
    x: 1
    y: 174
    width: 31
    height: 52
    xOffset: -3
    yOffset: 1
    xAdvance: 19
    page: 0
    chnl: 15
  - ID: 125
    Char: 7d
    x: 33
    y: 174
    width: 27
    height: 52
    xOffset: -2
    yOffset: 1
    xAdvance: 14
    page: 0
    chnl: 15
  - ID: 41
    Char: 29
    x: 61
    y: 174
    width: 29
    height: 52
    xOffset: -4
    yOffset: 1
    xAdvance: 15
    page: 0
    chnl: 15
  - ID: 70
    Char: 46
    x: 91
    y: 174
    width: 42
    height: 52
    xOffset: 1
    yOffset: 1
    xAdvance: 25
    page: 0
    chnl: 15
  - ID: 123
    Char: 7b
    x: 134
    y: 174
    width: 27
    height: 52
    xOffset: 1
    yOffset: 1
    xAdvance: 15
    page: 0
    chnl: 15
  - ID: 72
    Char: 48
    x: 162
    y: 174
    width: 42
    height: 52
    xOffset: 1
    yOffset: 1
    xAdvance: 32
    page: 0
    chnl: 15
  - ID: 76
    Char: 4c
    x: 205
    y: 174
    width: 46
    height: 52
    xOffset: -6
    yOffset: 1
    xAdvance: 29
    page: 0
    chnl: 15
  - ID: 78
    Char: 4e
    x: 252
    y: 174
    width: 44
    height: 52
    xOffset: 1
    yOffset: 1
    xAdvance: 32
    page: 0
    chnl: 15
  - ID: 75
    Char: 4b
    x: 297
    y: 174
    width: 42
    height: 52
    xOffset: 0
    yOffset: 1
    xAdvance: 31
    page: 0
    chnl: 15
  - ID: 87
    Char: 57
    x: 340
    y: 174
    width: 60
    height: 52
    xOffset: -1
    yOffset: 1
    xAdvance: 46
    page: 0
    chnl: 15
  - ID: 77
    Char: 4d
    x: 401
    y: 174
    width: 51
    height: 52
    xOffset: -2
    yOffset: 1
    xAdvance: 39
    page: 0
    chnl: 15
  - ID: 37
    Char: 25
    x: 453
    y: 174
    width: 43
    height: 52
    xOffset: 2
    yOffset: 1
    xAdvance: 36
    page: 0
    chnl: 15
  - ID: 86
    Char: 56
    x: 1
    y: 228
    width: 46
    height: 52
    xOffset: -1
    yOffset: 1
    xAdvance: 32
    page: 0
    chnl: 15
  - ID: 106
    Char: 6a
    x: 48
    y: 228
    width: 35
    height: 52
    xOffset: -11
    yOffset: 11
    xAdvance: 11
    page: 0
    chnl: 15
  - ID: 98
    Char: 62
    x: 84
    y: 228
    width: 36
    height: 51
    xOffset: -4
    yOffset: 1
    xAdvance: 20
    page: 0
    chnl: 15
  - ID: 65
    Char: 41
    x: 121
    y: 228
    width: 43
    height: 51
    xOffset: -2
    yOffset: 1
    xAdvance: 30
    page: 0
    chnl: 15
  - ID: 40
    Char: 28
    x: 165
    y: 228
    width: 29
    height: 51
    xOffset: 1
    yOffset: 1
    xAdvance: 14
    page: 0
    chnl: 15
  - ID: 107
    Char: 6b
    x: 195
    y: 228
    width: 38
    height: 49
    xOffset: -3
    yOffset: 1
    xAdvance: 22
    page: 0
    chnl: 15
  - ID: 100
    Char: 64
    x: 234
    y: 228
    width: 42
    height: 49
    xOffset: -4
    yOffset: 1
    xAdvance: 24
    page: 0
    chnl: 15
  - ID: 63
    Char: 3f
    x: 277
    y: 228
    width: 32
    height: 49
    xOffset: 3
    yOffset: 0
    xAdvance: 22
    page: 0
    chnl: 15
  - ID: 108
    Char: 6c
    x: 310
    y: 228
    width: 31
    height: 49
    xOffset: -3
    yOffset: 1
    xAdvance: 12
    page: 0
    chnl: 15
  - ID: 104
    Char: 68
    x: 342
    y: 228
    width: 39
    height: 49
    xOffset: -3
    yOffset: 1
    xAdvance: 24
    page: 0
    chnl: 15
  - ID: 33
    Char: 21
    x: 382
    y: 228
    width: 31
    height: 48
    xOffset: -2
    yOffset: 1
    xAdvance: 14
    page: 0
    chnl: 15
  - ID: 122
    Char: 7a
    x: 414
    y: 228
    width: 34
    height: 45
    xOffset: -5
    yOffset: 18
    xAdvance: 16
    page: 0
    chnl: 15
  - ID: 113
    Char: 71
    x: 449
    y: 228
    width: 36
    height: 44
    xOffset: -4
    yOffset: 18
    xAdvance: 20
    page: 0
    chnl: 15
  - ID: 112
    Char: 70
    x: 1
    y: 282
    width: 36
    height: 44
    xOffset: -7
    yOffset: 18
    xAdvance: 20
    page: 0
    chnl: 15
  - ID: 103
    Char: 67
    x: 38
    y: 282
    width: 36
    height: 44
    xOffset: -4
    yOffset: 18
    xAdvance: 19
    page: 0
    chnl: 15
  - ID: 116
    Char: 74
    x: 75
    y: 282
    width: 30
    height: 44
    xOffset: -3
    yOffset: 7
    xAdvance: 14
    page: 0
    chnl: 15
  - ID: 121
    Char: 79
    x: 106
    y: 282
    width: 35
    height: 41
    xOffset: -3
    yOffset: 21
    xAdvance: 19
    page: 0
    chnl: 15
  - ID: 105
    Char: 69
    x: 142
    y: 282
    width: 28
    height: 39
    xOffset: -3
    yOffset: 11
    xAdvance: 12
    page: 0
    chnl: 15
  - ID: 64
    Char: 40
    x: 171
    y: 282
    width: 41
    height: 39
    xOffset: -2
    yOffset: 16
    xAdvance: 29
    page: 0
    chnl: 15
  - ID: 115
    Char: 73
    x: 213
    y: 282
    width: 33
    height: 35
    xOffset: -4
    yOffset: 17
    xAdvance: 17
    page: 0
    chnl: 15
  - ID: 101
    Char: 65
    x: 247
    y: 282
    width: 33
    height: 34
    xOffset: -4
    yOffset: 17
    xAdvance: 16
    page: 0
    chnl: 15
  - ID: 114
    Char: 72
    x: 281
    y: 282
    width: 32
    height: 34
    xOffset: -2
    yOffset: 16
    xAdvance: 17
    page: 0
    chnl: 15
  - ID: 97
    Char: 61
    x: 314
    y: 282
    width: 38
    height: 33
    xOffset: -4
    yOffset: 18
    xAdvance: 21
    page: 0
    chnl: 15
  - ID: 99
    Char: 63
    x: 353
    y: 282
    width: 32
    height: 32
    xOffset: -3
    yOffset: 19
    xAdvance: 16
    page: 0
    chnl: 15
  - ID: 111
    Char: 6f
    x: 386
    y: 282
    width: 34
    height: 32
    xOffset: -4
    yOffset: 19
    xAdvance: 18
    page: 0
    chnl: 15
  - ID: 120
    Char: 78
    x: 421
    y: 282
    width: 35
    height: 32
    xOffset: -2
    yOffset: 20
    xAdvance: 21
    page: 0
    chnl: 15
  - ID: 59
    Char: 3b
    x: 457
    y: 282
    width: 21
    height: 32
    xOffset: -1
    yOffset: 21
    xAdvance: 12
    page: 0
    chnl: 15
  - ID: 118
    Char: 76
    x: 1
    y: 328
    width: 35
    height: 31
    xOffset: -3
    yOffset: 20
    xAdvance: 20
    page: 0
    chnl: 15
  - ID: 119
    Char: 77
    x: 37
    y: 328
    width: 46
    height: 31
    xOffset: -3
    yOffset: 20
    xAdvance: 30
    page: 0
    chnl: 15
  - ID: 109
    Char: 6d
    x: 84
    y: 328
    width: 48
    height: 31
    xOffset: -4
    yOffset: 20
    xAdvance: 32
    page: 0
    chnl: 15
  - ID: 43
    Char: 2b
    x: 133
    y: 328
    width: 32
    height: 30
    xOffset: -1
    yOffset: 20
    xAdvance: 21
    page: 0
    chnl: 15
  - ID: 117
    Char: 75
    x: 166
    y: 328
    width: 37
    height: 29
    xOffset: -3
    yOffset: 21
    xAdvance: 21
    page: 0
    chnl: 15
  - ID: 110
    Char: 6e
    x: 204
    y: 328
    width: 39
    height: 28
    xOffset: -4
    yOffset: 22
    xAdvance: 23
    page: 0
    chnl: 15
  - ID: 58
    Char: 3a
    x: 244
    y: 328
    width: 21
    height: 28
    xOffset: 0
    yOffset: 21
    xAdvance: 12
    page: 0
    chnl: 15
  - ID: 42
    Char: 2a
    x: 266
    y: 328
    width: 30
    height: 28
    xOffset: 4
    yOffset: 0
    xAdvance: 20
    page: 0
    chnl: 15
  - ID: 62
    Char: 3e
    x: 297
    y: 328
    width: 23
    height: 26
    xOffset: 1
    yOffset: 20
    xAdvance: 16
    page: 0
    chnl: 15
  - ID: 60
    Char: 3c
    x: 321
    y: 328
    width: 23
    height: 26
    xOffset: -1
    yOffset: 21
    xAdvance: 16
    page: 0
    chnl: 15
  - ID: 34
    Char: 22
    x: 345
    y: 328
    width: 23
    height: 21
    xOffset: 5
    yOffset: 0
    xAdvance: 13
    page: 0
    chnl: 15
  - ID: 61
    Char: 3d
    x: 369
    y: 328
    width: 32
    height: 21
    xOffset: 0
    yOffset: 22
    xAdvance: 25
    page: 0
    chnl: 15
  - ID: 94
    Char: 5e
    x: 402
    y: 328
    width: 23
    height: 20
    xOffset: -2
    yOffset: 9
    xAdvance: 10
    page: 0
    chnl: 15
  - ID: 96
    Char: 60
    x: 426
    y: 328
    width: 20
    height: 20
    xOffset: -2
    yOffset: 9
    xAdvance: 7
    page: 0
    chnl: 15
  - ID: 44
    Char: 2c
    x: 447
    y: 328
    width: 17
    height: 20
    xOffset: -2
    yOffset: 33
    xAdvance: 10
    page: 0
    chnl: 15
  - ID: 39
    Char: 27
    x: 465
    y: 328
    width: 17
    height: 20
    xOffset: 5
    yOffset: 1
    xAdvance: 7
    page: 0
    chnl: 15
  - ID: 95
    Char: 5f
    x: 1
    y: 361
    width: 49
    height: 18
    xOffset: -2
    yOffset: 34
    xAdvance: 43
    page: 0
    chnl: 15
  - ID: 46
    Char: 2e
    x: 51
    y: 361
    width: 17
    height: 17
    xOffset: -1
    yOffset: 32
    xAdvance: 12
    page: 0
    chnl: 15
  - ID: 45
    Char: 2d
    x: 69
    y: 361
    width: 31
    height: 17
    xOffset: 1
    yOffset: 25
    xAdvance: 24
    page: 0
    chnl: 15
  - ID: 126
    Char: 7e
    x: 101
    y: 361
    width: 27
    height: 17
    xOffset: 2
    yOffset: 26
    xAdvance: 23
    page: 0
    chnl: 15
  - ID: 32
    Char: 20
    x: 129
    y: 361
    width: 0
    height: 0
    xOffset: 0
    yOffset: 38
    xAdvance: 12
    page: 0
    chnl: 15
  - ID: 32
    Char: 20
    x: 0
    y: 0
    width: 0
    height: 0
    xOffset: 0
    yOffset: 38
    xAdvance: 12
    page: 0
    chnl: 15
  png_path: 
  didEditorUpdate: 0
