%YAML 1.1
%TAG !u! tag:unity3d.com,2011:
--- !u!114 &11400000
MonoBehaviour:
  m_ObjectHideFlags: 0
  m_PrefabParentObject: {fileID: 0}
  m_PrefabInternal: {fileID: 0}
  m_GameObject: {fileID: 0}
  m_Enabled: 1
  m_EditorHideFlags: 0
  m_Script: {fileID: -2016425007, guid: df55f395b91cd1e4c8a117abb7fb4631, type: 3}
  m_Name: bf.Yano.32
  m_EditorClassIdentifier: 
  Face: 59616e6f2e3332
  Size: 36
  isBold: 0
  isItalic: 0
  PaddingLeft: 1
  PaddingRight: 1
  PaddingTop: 1
  PaddingBottom: 1
  lineHeight: 42
  Base: 30
  scaleW: 256
  scaleH: 187
  packed: 0
  pages: 1
  page1: {fileID: 2800000, guid: e0d491c6a1cd80443bbe252be4014f7c, type: 3}
  Chars:
  - ID: 91
    Char: 5b
    x: 1
    y: 1
    width: 15
    height: 42
    xOffset: 4
    yOffset: 0
    xAdvance: 14
    page: 0
    chnl: 15
  - ID: 124
    Char: 7c
    x: 17
    y: 1
    width: 8
    height: 42
    xOffset: 4
    yOffset: 0
    xAdvance: 12
    page: 0
    chnl: 15
  - ID: 93
    Char: 5d
    x: 26
    y: 1
    width: 15
    height: 42
    xOffset: 0
    yOffset: 0
    xAdvance: 14
    page: 0
    chnl: 15
  - ID: 41
    Char: 29
    x: 42
    y: 1
    width: 13
    height: 41
    xOffset: 1
    yOffset: 1
    xAdvance: 11
    page: 0
    chnl: 15
  - ID: 40
    Char: 28
    x: 56
    y: 1
    width: 13
    height: 41
    xOffset: 2
    yOffset: 1
    xAdvance: 11
    page: 0
    chnl: 15
  - ID: 106
    Char: 6a
    x: 70
    y: 1
    width: 14
    height: 38
    xOffset: -4
    yOffset: 4
    xAdvance: 7
    page: 0
    chnl: 15
  - ID: 123
    Char: 7b
    x: 85
    y: 1
    width: 13
    height: 38
    xOffset: 1
    yOffset: 3
    xAdvance: 10
    page: 0
    chnl: 15
  - ID: 125
    Char: 7d
    x: 99
    y: 1
    width: 13
    height: 38
    xOffset: 1
    yOffset: 3
    xAdvance: 10
    page: 0
    chnl: 15
  - ID: 64
    Char: 40
    x: 113
    y: 1
    width: 29
    height: 37
    xOffset: 2
    yOffset: 5
    xAdvance: 27
    page: 0
    chnl: 15
  - ID: 81
    Char: 51
    x: 143
    y: 1
    width: 19
    height: 36
    xOffset: 1
    yOffset: 4
    xAdvance: 15
    page: 0
    chnl: 15
  - ID: 36
    Char: 24
    x: 163
    y: 1
    width: 17
    height: 36
    xOffset: 2
    yOffset: 3
    xAdvance: 15
    page: 0
    chnl: 15
  - ID: 47
    Char: 2f
    x: 181
    y: 1
    width: 17
    height: 34
    xOffset: 0
    yOffset: 2
    xAdvance: 12
    page: 0
    chnl: 15
  - ID: 104
    Char: 68
    x: 199
    y: 1
    width: 16
    height: 32
    xOffset: 2
    yOffset: 3
    xAdvance: 14
    page: 0
    chnl: 15
  - ID: 102
    Char: 66
    x: 216
    y: 1
    width: 17
    height: 32
    xOffset: 0
    yOffset: 3
    xAdvance: 9
    page: 0
    chnl: 15
  - ID: 100
    Char: 64
    x: 234
    y: 1
    width: 16
    height: 32
    xOffset: 1
    yOffset: 3
    xAdvance: 14
    page: 0
    chnl: 15
  - ID: 107
    Char: 6b
    x: 1
    y: 45
    width: 16
    height: 32
    xOffset: 2
    yOffset: 3
    xAdvance: 14
    page: 0
    chnl: 15
  - ID: 98
    Char: 62
    x: 18
    y: 45
    width: 17
    height: 32
    xOffset: 2
    yOffset: 3
    xAdvance: 14
    page: 0
    chnl: 15
  - ID: 108
    Char: 6c
    x: 36
    y: 45
    width: 8
    height: 32
    xOffset: 2
    yOffset: 3
    xAdvance: 6
    page: 0
    chnl: 15
  - ID: 105
    Char: 69
    x: 45
    y: 45
    width: 9
    height: 31
    xOffset: 2
    yOffset: 4
    xAdvance: 6
    page: 0
    chnl: 15
  - ID: 112
    Char: 70
    x: 55
    y: 45
    width: 16
    height: 31
    xOffset: 2
    yOffset: 11
    xAdvance: 14
    page: 0
    chnl: 15
  - ID: 113
    Char: 71
    x: 72
    y: 45
    width: 17
    height: 31
    xOffset: 1
    yOffset: 11
    xAdvance: 14
    page: 0
    chnl: 15
  - ID: 103
    Char: 67
    x: 90
    y: 45
    width: 18
    height: 31
    xOffset: 1
    yOffset: 11
    xAdvance: 14
    page: 0
    chnl: 15
  - ID: 79
    Char: 4f
    x: 109
    y: 45
    width: 19
    height: 31
    xOffset: 1
    yOffset: 4
    xAdvance: 15
    page: 0
    chnl: 15
  - ID: 90
    Char: 5a
    x: 129
    y: 45
    width: 18
    height: 31
    xOffset: 1
    yOffset: 4
    xAdvance: 14
    page: 0
    chnl: 15
  - ID: 33
    Char: 21
    x: 148
    y: 45
    width: 9
    height: 31
    xOffset: 2
    yOffset: 4
    xAdvance: 7
    page: 0
    chnl: 15
  - ID: 77
    Char: 4d
    x: 158
    y: 45
    width: 20
    height: 31
    xOffset: 2
    yOffset: 4
    xAdvance: 18
    page: 0
    chnl: 15
  - ID: 65
    Char: 41
    x: 179
    y: 45
    width: 21
    height: 31
    xOffset: 0
    yOffset: 4
    xAdvance: 16
    page: 0
    chnl: 15
  - ID: 66
    Char: 42
    x: 201
    y: 45
    width: 17
    height: 31
    xOffset: 2
    yOffset: 4
    xAdvance: 14
    page: 0
    chnl: 15
  - ID: 67
    Char: 43
    x: 219
    y: 45
    width: 16
    height: 31
    xOffset: 1
    yOffset: 4
    xAdvance: 12
    page: 0
    chnl: 15
  - ID: 68
    Char: 44
    x: 236
    y: 45
    width: 17
    height: 31
    xOffset: 2
    yOffset: 4
    xAdvance: 14
    page: 0
    chnl: 15
  - ID: 69
    Char: 45
    x: 1
    y: 79
    width: 15
    height: 31
    xOffset: 2
    yOffset: 4
    xAdvance: 12
    page: 0
    chnl: 15
  - ID: 70
    Char: 46
    x: 17
    y: 79
    width: 15
    height: 31
    xOffset: 2
    yOffset: 4
    xAdvance: 11
    page: 0
    chnl: 15
  - ID: 71
    Char: 47
    x: 33
    y: 79
    width: 17
    height: 31
    xOffset: 1
    yOffset: 4
    xAdvance: 14
    page: 0
    chnl: 15
  - ID: 72
    Char: 48
    x: 51
    y: 79
    width: 17
    height: 31
    xOffset: 2
    yOffset: 4
    xAdvance: 15
    page: 0
    chnl: 15
  - ID: 73
    Char: 49
    x: 69
    y: 79
    width: 8
    height: 31
    xOffset: 2
    yOffset: 4
    xAdvance: 6
    page: 0
    chnl: 15
  - ID: 74
    Char: 4a
    x: 78
    y: 79
    width: 14
    height: 31
    xOffset: 1
    yOffset: 4
    xAdvance: 11
    page: 0
    chnl: 15
  - ID: 75
    Char: 4b
    x: 93
    y: 79
    width: 17
    height: 31
    xOffset: 2
    yOffset: 4
    xAdvance: 14
    page: 0
    chnl: 15
  - ID: 76
    Char: 4c
    x: 111
    y: 79
    width: 14
    height: 31
    xOffset: 2
    yOffset: 4
    xAdvance: 11
    page: 0
    chnl: 15
  - ID: 37
    Char: 25
    x: 126
    y: 79
    width: 27
    height: 31
    xOffset: 2
    yOffset: 4
    xAdvance: 25
    page: 0
    chnl: 15
  - ID: 78
    Char: 4e
    x: 154
    y: 79
    width: 18
    height: 31
    xOffset: 2
    yOffset: 4
    xAdvance: 16
    page: 0
    chnl: 15
  - ID: 38
    Char: 26
    x: 173
    y: 79
    width: 22
    height: 31
    xOffset: 1
    yOffset: 4
    xAdvance: 18
    page: 0
    chnl: 15
  - ID: 80
    Char: 50
    x: 196
    y: 79
    width: 16
    height: 31
    xOffset: 2
    yOffset: 4
    xAdvance: 13
    page: 0
    chnl: 15
  - ID: 63
    Char: 3f
    x: 213
    y: 79
    width: 15
    height: 31
    xOffset: 1
    yOffset: 4
    xAdvance: 11
    page: 0
    chnl: 15
  - ID: 82
    Char: 52
    x: 229
    y: 79
    width: 16
    height: 31
    xOffset: 2
    yOffset: 4
    xAdvance: 13
    page: 0
    chnl: 15
  - ID: 83
    Char: 53
    x: 1
    y: 112
    width: 17
    height: 31
    xOffset: 1
    yOffset: 4
    xAdvance: 13
    page: 0
    chnl: 15
  - ID: 84
    Char: 54
    x: 19
    y: 112
    width: 18
    height: 31
    xOffset: 0
    yOffset: 4
    xAdvance: 13
    page: 0
    chnl: 15
  - ID: 85
    Char: 55
    x: 38
    y: 112
    width: 18
    height: 31
    xOffset: 2
    yOffset: 4
    xAdvance: 16
    page: 0
    chnl: 15
  - ID: 86
    Char: 56
    x: 57
    y: 112
    width: 20
    height: 31
    xOffset: 0
    yOffset: 4
    xAdvance: 15
    page: 0
    chnl: 15
  - ID: 87
    Char: 57
    x: 78
    y: 112
    width: 29
    height: 31
    xOffset: 0
    yOffset: 4
    xAdvance: 24
    page: 0
    chnl: 15
  - ID: 88
    Char: 58
    x: 108
    y: 112
    width: 20
    height: 31
    xOffset: 0
    yOffset: 4
    xAdvance: 15
    page: 0
    chnl: 15
  - ID: 89
    Char: 59
    x: 129
    y: 112
    width: 18
    height: 31
    xOffset: 0
    yOffset: 4
    xAdvance: 13
    page: 0
    chnl: 15
  - ID: 121
    Char: 79
    x: 148
    y: 112
    width: 18
    height: 30
    xOffset: 0
    yOffset: 12
    xAdvance: 13
    page: 0
    chnl: 15
  - ID: 116
    Char: 74
    x: 167
    y: 112
    width: 14
    height: 30
    xOffset: 1
    yOffset: 5
    xAdvance: 10
    page: 0
    chnl: 15
  - ID: 59
    Char: 3b
    x: 182
    y: 112
    width: 9
    height: 25
    xOffset: 1
    yOffset: 14
    xAdvance: 7
    page: 0
    chnl: 15
  - ID: 99
    Char: 63
    x: 192
    y: 112
    width: 15
    height: 24
    xOffset: 1
    yOffset: 11
    xAdvance: 11
    page: 0
    chnl: 15
  - ID: 120
    Char: 78
    x: 208
    y: 112
    width: 19
    height: 24
    xOffset: 1
    yOffset: 12
    xAdvance: 15
    page: 0
    chnl: 15
  - ID: 109
    Char: 6d
    x: 228
    y: 112
    width: 22
    height: 24
    xOffset: 2
    yOffset: 11
    xAdvance: 20
    page: 0
    chnl: 15
  - ID: 119
    Char: 77
    x: 1
    y: 145
    width: 24
    height: 24
    xOffset: 1
    yOffset: 12
    xAdvance: 19
    page: 0
    chnl: 15
  - ID: 111
    Char: 6f
    x: 26
    y: 145
    width: 17
    height: 24
    xOffset: 1
    yOffset: 11
    xAdvance: 13
    page: 0
    chnl: 15
  - ID: 118
    Char: 76
    x: 44
    y: 145
    width: 17
    height: 24
    xOffset: 1
    yOffset: 12
    xAdvance: 12
    page: 0
    chnl: 15
  - ID: 117
    Char: 75
    x: 62
    y: 145
    width: 16
    height: 24
    xOffset: 2
    yOffset: 12
    xAdvance: 14
    page: 0
    chnl: 15
  - ID: 101
    Char: 65
    x: 79
    y: 145
    width: 16
    height: 24
    xOffset: 1
    yOffset: 11
    xAdvance: 13
    page: 0
    chnl: 15
  - ID: 115
    Char: 73
    x: 96
    y: 145
    width: 16
    height: 24
    xOffset: 1
    yOffset: 11
    xAdvance: 12
    page: 0
    chnl: 15
  - ID: 97
    Char: 61
    x: 113
    y: 145
    width: 16
    height: 24
    xOffset: 1
    yOffset: 11
    xAdvance: 13
    page: 0
    chnl: 15
  - ID: 114
    Char: 72
    x: 130
    y: 145
    width: 13
    height: 24
    xOffset: 2
    yOffset: 11
    xAdvance: 9
    page: 0
    chnl: 15
  - ID: 110
    Char: 6e
    x: 144
    y: 145
    width: 16
    height: 24
    xOffset: 2
    yOffset: 11
    xAdvance: 14
    page: 0
    chnl: 15
  - ID: 122
    Char: 7a
    x: 161
    y: 145
    width: 16
    height: 23
    xOffset: 1
    yOffset: 12
    xAdvance: 12
    page: 0
    chnl: 15
  - ID: 58
    Char: 3a
    x: 178
    y: 145
    width: 9
    height: 22
    xOffset: 1
    yOffset: 14
    xAdvance: 7
    page: 0
    chnl: 15
  - ID: 42
    Char: 2a
    x: 188
    y: 145
    width: 21
    height: 21
    xOffset: 1
    yOffset: 5
    xAdvance: 17
    page: 0
    chnl: 15
  - ID: 35
    Char: 23
    x: 210
    y: 145
    width: 18
    height: 20
    xOffset: 1
    yOffset: 11
    xAdvance: 15
    page: 0
    chnl: 15
  - ID: 43
    Char: 2b
    x: 229
    y: 145
    width: 18
    height: 18
    xOffset: 1
    yOffset: 13
    xAdvance: 15
    page: 0
    chnl: 15
  - ID: 61
    Char: 3d
    x: 1
    y: 171
    width: 18
    height: 15
    xOffset: 1
    yOffset: 15
    xAdvance: 15
    page: 0
    chnl: 15
  - ID: 34
    Char: 22
    x: 20
    y: 171
    width: 13
    height: 13
    xOffset: 1
    yOffset: 1
    xAdvance: 10
    page: 0
    chnl: 15
  - ID: 39
    Char: 27
    x: 34
    y: 171
    width: 8
    height: 13
    xOffset: 1
    yOffset: 1
    xAdvance: 5
    page: 0
    chnl: 15
  - ID: 44
    Char: 2c
    x: 43
    y: 171
    width: 9
    height: 13
    xOffset: 1
    yOffset: 26
    xAdvance: 7
    page: 0
    chnl: 15
  - ID: 94
    Char: 5e
    x: 53
    y: 171
    width: 17
    height: 12
    xOffset: 2
    yOffset: 15
    xAdvance: 15
    page: 0
    chnl: 15
  - ID: 46
    Char: 2e
    x: 71
    y: 171
    width: 9
    height: 9
    xOffset: 1
    yOffset: 26
    xAdvance: 7
    page: 0
    chnl: 15
  - ID: 45
    Char: 2d
    x: 81
    y: 171
    width: 13
    height: 8
    xOffset: 1
    yOffset: 18
    xAdvance: 10
    page: 0
    chnl: 15
  - ID: 95
    Char: 5f
    x: 95
    y: 171
    width: 18
    height: 8
    xOffset: 0
    yOffset: 31
    xAdvance: 14
    page: 0
    chnl: 15
  - ID: 8470
    Char: e28496
    x: 114
    y: 171
    width: 0
    height: 0
    xOffset: 0
    yOffset: 30
    xAdvance: 9
    page: 0
    chnl: 15
  - ID: 32
    Char: 20
    x: 0
    y: 0
    width: 0
    height: 0
    xOffset: 0
    yOffset: 30
    xAdvance: 6
    page: 0
    chnl: 15
  png_path: 
  didEditorUpdate: 0
