%YAML 1.1
%TAG !u! tag:unity3d.com,2011:
--- !u!128 &12800000
Font:
  m_ObjectHideFlags: 0
  m_PrefabParentObject: {fileID: 0}
  m_PrefabInternal: {fileID: 0}
  m_Name: ef.IMPACT.32
  serializedVersion: 4
  m_AsciiStartOffset: 0
  m_Tracking: 1
  m_LineSpacing: 39.03125
  m_CharacterSpacing: 1
  m_CharacterPadding: 0
  m_ConvertCase: 0
  m_DefaultMaterial: {fileID: 2100000, guid: 0131b1086094b2748b5e971cf831a6f7, type: 2}
  m_CharacterRects:
  - serializedVersion: 2
    index: 32
    uv:
      serializedVersion: 2
      x: 0
      y: 0
      width: 0
      height: -0
    vert:
      serializedVersion: 2
      x: 0
      y: -32.28125
      width: 0
      height: -0
    advance: 6
    flipped: 0
  - serializedVersion: 2
    index: 33
    uv:
      serializedVersion: 2
      x: 0
      y: 0.10546875
      width: 0.03125
      height: -0.1015625
    vert:
      serializedVersion: 2
      x: 1
      y: -6.28125
      width: 8
      height: -26
    advance: 9
    flipped: 0
  - serializedVersion: 2
    index: 34
    uv:
      serializedVersion: 2
      x: 0.03515625
      y: 0.05078125
      width: 0.03515625
      height: -0.046875
    vert:
      serializedVersion: 2
      x: 0
      y: -6.28125
      width: 12
      height: -9
    advance: 12
    flipped: 1
  - serializedVersion: 2
    index: 35
    uv:
      serializedVersion: 2
      x: 0
      y: 0.19921875
      width: 0.078125
      height: -0.08984375
    vert:
      serializedVersion: 2
      x: 0
      y: -9.28125
      width: 20
      height: -23
    advance: 20
    flipped: 0
  - serializedVersion: 2
    index: 36
    uv:
      serializedVersion: 2
      x: 0.08203125
      y: 0.125
      width: 0.06640625
      height: -0.12109375
    vert:
      serializedVersion: 2
      x: 0
      y: -4.28125
      width: 17
      height: -31
    advance: 18
    flipped: 0
  - serializedVersion: 2
    index: 37
    uv:
      serializedVersion: 2
      x: 0
      y: 0.30859375
      width: 0.0859375
      height: -0.10546875
    vert:
      serializedVersion: 2
      x: 0
      y: -6.28125
      width: 22
      height: -27
    advance: 22
    flipped: 0
  - serializedVersion: 2
    index: 38
    uv:
      serializedVersion: 2
      x: 0.08984375
      y: 0.21875
      width: 0.07421875
      height: -0.08984375
    vert:
      serializedVersion: 2
      x: 0
      y: -10.28125
      width: 19
      height: -23
    advance: 18
    flipped: 0
  - serializedVersion: 2
    index: 39
    uv:
      serializedVersion: 2
      x: 0
      y: 0.34765625
      width: 0.0234375
      height: -0.03515625
    vert:
      serializedVersion: 2
      x: 0
      y: -6.28125
      width: 6
      height: -9
    advance: 6
    flipped: 0
  - serializedVersion: 2
    index: 40
    uv:
      serializedVersion: 2
      x: 0.08984375
      y: 0.32421875
      width: 0.03515625
      height: -0.1015625
    vert:
      serializedVersion: 2
      x: 1
      y: -6.28125
      width: 9
      height: -26
    advance: 10
    flipped: 0
  - serializedVersion: 2
    index: 41
    uv:
      serializedVersion: 2
      x: 0.02734375
      y: 0.4140625
      width: 0.03515625
      height: -0.1015625
    vert:
      serializedVersion: 2
      x: 0
      y: -6.28125
      width: 9
      height: -26
    advance: 10
    flipped: 0
  - serializedVersion: 2
    index: 42
    uv:
      serializedVersion: 2
      x: 0.12890625
      y: 0.2578125
      width: 0.03515625
      height: -0.03515625
    vert:
      serializedVersion: 2
      x: 0
      y: -6.28125
      width: 9
      height: -9
    advance: 9
    flipped: 0
  - serializedVersion: 2
    index: 43
    uv:
      serializedVersion: 2
      x: 0.12890625
      y: 0.32421875
      width: 0.0625
      height: -0.0625
    vert:
      serializedVersion: 2
      x: 1
      y: -11.28125
      width: 16
      height: -16
    advance: 17
    flipped: 0
  - serializedVersion: 2
    index: 44
    uv:
      serializedVersion: 2
      x: 0.16796875
      y: 0.0390625
      width: 0.01953125
      height: -0.03515625
    vert:
      serializedVersion: 2
      x: 0
      y: -27.28125
      width: 5
      height: -9
    advance: 5
    flipped: 0
  - serializedVersion: 2
    index: 45
    uv:
      serializedVersion: 2
      x: 0.06640625
      y: 0.34765625
      width: 0.01953125
      height: -0.03515625
    vert:
      serializedVersion: 2
      x: 0
      y: -19.28125
      width: 9
      height: -5
    advance: 9
    flipped: 1
  - serializedVersion: 2
    index: 46
    uv:
      serializedVersion: 2
      x: 0.00390625
      y: 0.44140625
      width: 0.0234375
      height: -0.0234375
    vert:
      serializedVersion: 2
      x: 0
      y: -26.28125
      width: 6
      height: -6
    advance: 6
    flipped: 0
  - serializedVersion: 2
    index: 47
    uv:
      serializedVersion: 2
      x: 0.08984375
      y: 0.43359375
      width: 0.05078125
      height: -0.10546875
    vert:
      serializedVersion: 2
      x: 0
      y: -6.28125
      width: 13
      height: -27
    advance: 13
    flipped: 0
  - serializedVersion: 2
    index: 48
    uv:
      serializedVersion: 2
      x: 0.1953125
      y: 0.109375
      width: 0.0625
      height: -0.10546875
    vert:
      serializedVersion: 2
      x: 1
      y: -6.28125
      width: 16
      height: -27
    advance: 17
    flipped: 0
  - serializedVersion: 2
    index: 49
    uv:
      serializedVersion: 2
      x: 0.14453125
      y: 0.4296875
      width: 0.04296875
      height: -0.1015625
    vert:
      serializedVersion: 2
      x: 0
      y: -6.28125
      width: 11
      height: -26
    advance: 12
    flipped: 0
  - serializedVersion: 2
    index: 50
    uv:
      serializedVersion: 2
      x: 0.03125
      y: 0.5390625
      width: 0.0625
      height: -0.1015625
    vert:
      serializedVersion: 2
      x: 0
      y: -6.28125
      width: 16
      height: -26
    advance: 16
    flipped: 0
  - serializedVersion: 2
    index: 51
    uv:
      serializedVersion: 2
      x: 0.14453125
      y: 0.5390625
      width: 0.0625
      height: -0.10546875
    vert:
      serializedVersion: 2
      x: 0
      y: -6.28125
      width: 16
      height: -27
    advance: 17
    flipped: 0
  - serializedVersion: 2
    index: 52
    uv:
      serializedVersion: 2
      x: 0.26171875
      y: 0.10546875
      width: 0.0625
      height: -0.1015625
    vert:
      serializedVersion: 2
      x: 0
      y: -6.28125
      width: 16
      height: -26
    advance: 16
    flipped: 0
  - serializedVersion: 2
    index: 53
    uv:
      serializedVersion: 2
      x: 0.16796875
      y: 0.21875
      width: 0.0625
      height: -0.10546875
    vert:
      serializedVersion: 2
      x: 1
      y: -6.28125
      width: 16
      height: -27
    advance: 17
    flipped: 0
  - serializedVersion: 2
    index: 54
    uv:
      serializedVersion: 2
      x: 0.328125
      y: 0.109375
      width: 0.0625
      height: -0.10546875
    vert:
      serializedVersion: 2
      x: 1
      y: -6.28125
      width: 16
      height: -27
    advance: 17
    flipped: 0
  - serializedVersion: 2
    index: 55
    uv:
      serializedVersion: 2
      x: 0.234375
      y: 0.21484375
      width: 0.05078125
      height: -0.1015625
    vert:
      serializedVersion: 2
      x: 0
      y: -6.28125
      width: 13
      height: -26
    advance: 13
    flipped: 0
  - serializedVersion: 2
    index: 56
    uv:
      serializedVersion: 2
      x: 0.39453125
      y: 0.109375
      width: 0.0625
      height: -0.10546875
    vert:
      serializedVersion: 2
      x: 1
      y: -6.28125
      width: 16
      height: -27
    advance: 17
    flipped: 0
  - serializedVersion: 2
    index: 57
    uv:
      serializedVersion: 2
      x: 0.2890625
      y: 0.21875
      width: 0.0625
      height: -0.10546875
    vert:
      serializedVersion: 2
      x: 1
      y: -6.28125
      width: 16
      height: -27
    advance: 17
    flipped: 0
  - serializedVersion: 2
    index: 58
    uv:
      serializedVersion: 2
      x: 0.06640625
      y: 0.41796875
      width: 0.01953125
      height: -0.06640625
    vert:
      serializedVersion: 2
      x: 1
      y: -15.28125
      width: 5
      height: -17
    advance: 6
    flipped: 0
  - serializedVersion: 2
    index: 59
    uv:
      serializedVersion: 2
      x: 0.00390625
      y: 0.52734375
      width: 0.01953125
      height: -0.08203125
    vert:
      serializedVersion: 2
      x: 1
      y: -15.28125
      width: 5
      height: -21
    advance: 6
    flipped: 0
  - serializedVersion: 2
    index: 60
    uv:
      serializedVersion: 2
      x: 0.4609375
      y: 0.06640625
      width: 0.0625
      height: -0.0625
    vert:
      serializedVersion: 2
      x: 1
      y: -11.28125
      width: 16
      height: -16
    advance: 17
    flipped: 0
  - serializedVersion: 2
    index: 61
    uv:
      serializedVersion: 2
      x: 0.35546875
      y: 0.17578125
      width: 0.04296875
      height: -0.0625
    vert:
      serializedVersion: 2
      x: 1
      y: -14.28125
      width: 16
      height: -11
    advance: 17
    flipped: 1
  - serializedVersion: 2
    index: 62
    uv:
      serializedVersion: 2
      x: 0.1953125
      y: 0.28515625
      width: 0.0625
      height: -0.0625
    vert:
      serializedVersion: 2
      x: 1
      y: -11.28125
      width: 16
      height: -16
    advance: 17
    flipped: 0
  - serializedVersion: 2
    index: 63
    uv:
      serializedVersion: 2
      x: 0.40234375
      y: 0.21484375
      width: 0.0625
      height: -0.1015625
    vert:
      serializedVersion: 2
      x: 1
      y: -6.28125
      width: 16
      height: -26
    advance: 17
    flipped: 0
  - serializedVersion: 2
    index: 64
    uv:
      serializedVersion: 2
      x: 0.52734375
      y: 0.11328125
      width: 0.09765625
      height: -0.109375
    vert:
      serializedVersion: 2
      x: 0
      y: -6.28125
      width: 25
      height: -28
    advance: 25
    flipped: 0
  - serializedVersion: 2
    index: 65
    uv:
      serializedVersion: 2
      x: 0.00390625
      y: 0.64453125
      width: 0.0703125
      height: -0.1015625
    vert:
      serializedVersion: 2
      x: -1
      y: -6.28125
      width: 18
      height: -26
    advance: 16
    flipped: 0
  - serializedVersion: 2
    index: 66
    uv:
      serializedVersion: 2
      x: 0.078125
      y: 0.64453125
      width: 0.0625
      height: -0.1015625
    vert:
      serializedVersion: 2
      x: 1
      y: -6.28125
      width: 16
      height: -26
    advance: 18
    flipped: 0
  - serializedVersion: 2
    index: 67
    uv:
      serializedVersion: 2
      x: 0.35546875
      y: 0.32421875
      width: 0.0625
      height: -0.10546875
    vert:
      serializedVersion: 2
      x: 1
      y: -6.28125
      width: 16
      height: -27
    advance: 18
    flipped: 0
  - serializedVersion: 2
    index: 68
    uv:
      serializedVersion: 2
      x: 0.62890625
      y: 0.10546875
      width: 0.0625
      height: -0.1015625
    vert:
      serializedVersion: 2
      x: 1
      y: -6.28125
      width: 16
      height: -26
    advance: 18
    flipped: 0
  - serializedVersion: 2
    index: 69
    uv:
      serializedVersion: 2
      x: 0.421875
      y: 0.3203125
      width: 0.046875
      height: -0.1015625
    vert:
      serializedVersion: 2
      x: 1
      y: -6.28125
      width: 12
      height: -26
    advance: 13
    flipped: 0
  - serializedVersion: 2
    index: 70
    uv:
      serializedVersion: 2
      x: 0.2109375
      y: 0.390625
      width: 0.046875
      height: -0.1015625
    vert:
      serializedVersion: 2
      x: 1
      y: -6.28125
      width: 12
      height: -26
    advance: 13
    flipped: 0
  - serializedVersion: 2
    index: 71
    uv:
      serializedVersion: 2
      x: 0.47265625
      y: 0.22265625
      width: 0.0625
      height: -0.10546875
    vert:
      serializedVersion: 2
      x: 1
      y: -6.28125
      width: 16
      height: -27
    advance: 18
    flipped: 0
  - serializedVersion: 2
    index: 72
    uv:
      serializedVersion: 2
      x: 0.00390625
      y: 0.75
      width: 0.0625
      height: -0.1015625
    vert:
      serializedVersion: 2
      x: 1
      y: -6.28125
      width: 16
      height: -26
    advance: 18
    flipped: 0
  - serializedVersion: 2
    index: 73
    uv:
      serializedVersion: 2
      x: 0.5390625
      y: 0.21875
      width: 0.02734375
      height: -0.1015625
    vert:
      serializedVersion: 2
      x: 1
      y: -6.28125
      width: 7
      height: -26
    advance: 9
    flipped: 0
  - serializedVersion: 2
    index: 74
    uv:
      serializedVersion: 2
      x: 0.26171875
      y: 0.32421875
      width: 0.0390625
      height: -0.1015625
    vert:
      serializedVersion: 2
      x: 0
      y: -6.28125
      width: 10
      height: -26
    advance: 11
    flipped: 0
  - serializedVersion: 2
    index: 75
    uv:
      serializedVersion: 2
      x: 0.14453125
      y: 0.64453125
      width: 0.06640625
      height: -0.1015625
    vert:
      serializedVersion: 2
      x: 1
      y: -6.28125
      width: 17
      height: -26
    advance: 17
    flipped: 0
  - serializedVersion: 2
    index: 76
    uv:
      serializedVersion: 2
      x: 0.5703125
      y: 0.21875
      width: 0.04296875
      height: -0.1015625
    vert:
      serializedVersion: 2
      x: 1
      y: -6.28125
      width: 11
      height: -26
    advance: 12
    flipped: 0
  - serializedVersion: 2
    index: 77
    uv:
      serializedVersion: 2
      x: 0.47265625
      y: 0.328125
      width: 0.08203125
      height: -0.1015625
    vert:
      serializedVersion: 2
      x: 1
      y: -6.28125
      width: 21
      height: -26
    advance: 23
    flipped: 0
  - serializedVersion: 2
    index: 78
    uv:
      serializedVersion: 2
      x: 0.6953125
      y: 0.10546875
      width: 0.05859375
      height: -0.1015625
    vert:
      serializedVersion: 2
      x: 1
      y: -6.28125
      width: 15
      height: -26
    advance: 17
    flipped: 0
  - serializedVersion: 2
    index: 79
    uv:
      serializedVersion: 2
      x: 0.0703125
      y: 0.75390625
      width: 0.0625
      height: -0.10546875
    vert:
      serializedVersion: 2
      x: 1
      y: -6.28125
      width: 16
      height: -27
    advance: 17
    flipped: 0
  - serializedVersion: 2
    index: 80
    uv:
      serializedVersion: 2
      x: 0.6171875
      y: 0.21875
      width: 0.05859375
      height: -0.1015625
    vert:
      serializedVersion: 2
      x: 1
      y: -6.28125
      width: 15
      height: -26
    advance: 16
    flipped: 0
  - serializedVersion: 2
    index: 81
    uv:
      serializedVersion: 2
      x: 0.00390625
      y: 0.87109375
      width: 0.0625
      height: -0.1171875
    vert:
      serializedVersion: 2
      x: 1
      y: -6.28125
      width: 16
      height: -30
    advance: 17
    flipped: 0
  - serializedVersion: 2
    index: 82
    uv:
      serializedVersion: 2
      x: 0.21484375
      y: 0.49609375
      width: 0.05859375
      height: -0.1015625
    vert:
      serializedVersion: 2
      x: 1
      y: -6.28125
      width: 15
      height: -26
    advance: 17
    flipped: 0
  - serializedVersion: 2
    index: 83
    uv:
      serializedVersion: 2
      x: 0.7578125
      y: 0.109375
      width: 0.0625
      height: -0.10546875
    vert:
      serializedVersion: 2
      x: 0
      y: -6.28125
      width: 16
      height: -27
    advance: 17
    flipped: 0
  - serializedVersion: 2
    index: 84
    uv:
      serializedVersion: 2
      x: 0.13671875
      y: 0.75
      width: 0.05859375
      height: -0.1015625
    vert:
      serializedVersion: 2
      x: 0
      y: -6.28125
      width: 15
      height: -26
    advance: 15
    flipped: 0
  - serializedVersion: 2
    index: 85
    uv:
      serializedVersion: 2
      x: 0.55859375
      y: 0.328125
      width: 0.0625
      height: -0.10546875
    vert:
      serializedVersion: 2
      x: 1
      y: -6.28125
      width: 16
      height: -27
    advance: 18
    flipped: 0
  - serializedVersion: 2
    index: 86
    uv:
      serializedVersion: 2
      x: 0.6796875
      y: 0.2109375
      width: 0.0703125
      height: -0.1015625
    vert:
      serializedVersion: 2
      x: -1
      y: -6.28125
      width: 18
      height: -26
    advance: 17
    flipped: 0
  - serializedVersion: 2
    index: 87
    uv:
      serializedVersion: 2
      x: 0.27734375
      y: 0.43359375
      width: 0.1015625
      height: -0.10546875
    vert:
      serializedVersion: 2
      x: 0
      y: -6.28125
      width: 27
      height: -26
    advance: 26
    flipped: 1
  - serializedVersion: 2
    index: 88
    uv:
      serializedVersion: 2
      x: 0.0703125
      y: 0.859375
      width: 0.0625
      height: -0.1015625
    vert:
      serializedVersion: 2
      x: 0
      y: -6.28125
      width: 16
      height: -26
    advance: 15
    flipped: 0
  - serializedVersion: 2
    index: 89
    uv:
      serializedVersion: 2
      x: 0.82421875
      y: 0.10546875
      width: 0.06640625
      height: -0.1015625
    vert:
      serializedVersion: 2
      x: -1
      y: -6.28125
      width: 17
      height: -26
    advance: 15
    flipped: 0
  - serializedVersion: 2
    index: 90
    uv:
      serializedVersion: 2
      x: 0.19921875
      y: 0.75
      width: 0.05078125
      height: -0.1015625
    vert:
      serializedVersion: 2
      x: 0
      y: -6.28125
      width: 13
      height: -26
    advance: 13
    flipped: 0
  - serializedVersion: 2
    index: 91
    uv:
      serializedVersion: 2
      x: 0.625
      y: 0.32421875
      width: 0.03125
      height: -0.1015625
    vert:
      serializedVersion: 2
      x: 1
      y: -6.28125
      width: 8
      height: -26
    advance: 9
    flipped: 0
  - serializedVersion: 2
    index: 92
    uv:
      serializedVersion: 2
      x: 0.75390625
      y: 0.21875
      width: 0.05078125
      height: -0.10546875
    vert:
      serializedVersion: 2
      x: 0
      y: -6.28125
      width: 13
      height: -27
    advance: 13
    flipped: 0
  - serializedVersion: 2
    index: 93
    uv:
      serializedVersion: 2
      x: 0.00390625
      y: 0.9765625
      width: 0.03125
      height: -0.1015625
    vert:
      serializedVersion: 2
      x: 0
      y: -6.28125
      width: 8
      height: -26
    advance: 9
    flipped: 0
  - serializedVersion: 2
    index: 94
    uv:
      serializedVersion: 2
      x: 0.66015625
      y: 0.28515625
      width: 0.0546875
      height: -0.0625
    vert:
      serializedVersion: 2
      x: 0
      y: -6.28125
      width: 16
      height: -14
    advance: 15
    flipped: 1
  - serializedVersion: 2
    index: 95
    uv:
      serializedVersion: 2
      x: 0.13671875
      y: 0.828125
      width: 0.0078125
      height: -0.07421875
    vert:
      serializedVersion: 2
      x: -1
      y: -34.28125
      width: 19
      height: -2
    advance: 18
    flipped: 1
  - serializedVersion: 2
    index: 96
    uv:
      serializedVersion: 2
      x: 0.3828125
      y: 0.36328125
      width: 0.01953125
      height: -0.03515625
    vert:
      serializedVersion: 2
      x: 0
      y: -4.28125
      width: 9
      height: -5
    advance: 11
    flipped: 1
  - serializedVersion: 2
    index: 97
    uv:
      serializedVersion: 2
      x: 0.89453125
      y: 0.09375
      width: 0.0625
      height: -0.08984375
    vert:
      serializedVersion: 2
      x: 0
      y: -10.28125
      width: 16
      height: -23
    advance: 17
    flipped: 0
  - serializedVersion: 2
    index: 98
    uv:
      serializedVersion: 2
      x: 0.1484375
      y: 0.859375
      width: 0.05859375
      height: -0.10546875
    vert:
      serializedVersion: 2
      x: 1
      y: -6.28125
      width: 15
      height: -27
    advance: 17
    flipped: 0
  - serializedVersion: 2
    index: 99
    uv:
      serializedVersion: 2
      x: 0.25390625
      y: 0.58984375
      width: 0.0625
      height: -0.08984375
    vert:
      serializedVersion: 2
      x: 0
      y: -10.28125
      width: 16
      height: -23
    advance: 16
    flipped: 0
  - serializedVersion: 2
    index: 100
    uv:
      serializedVersion: 2
      x: 0.0390625
      y: 0.98046875
      width: 0.0625
      height: -0.10546875
    vert:
      serializedVersion: 2
      x: 0
      y: -6.28125
      width: 16
      height: -27
    advance: 17
    flipped: 0
  - serializedVersion: 2
    index: 101
    uv:
      serializedVersion: 2
      x: 0.80859375
      y: 0.203125
      width: 0.0625
      height: -0.08984375
    vert:
      serializedVersion: 2
      x: 0
      y: -10.28125
      width: 16
      height: -23
    advance: 16
    flipped: 0
  - serializedVersion: 2
    index: 102
    uv:
      serializedVersion: 2
      x: 0.71875
      y: 0.32421875
      width: 0.0390625
      height: -0.1015625
    vert:
      serializedVersion: 2
      x: 0
      y: -6.28125
      width: 10
      height: -26
    advance: 9
    flipped: 0
  - serializedVersion: 2
    index: 103
    uv:
      serializedVersion: 2
      x: 0.625
      y: 0.4296875
      width: 0.0625
      height: -0.1015625
    vert:
      serializedVersion: 2
      x: 0
      y: -10.28125
      width: 16
      height: -26
    advance: 17
    flipped: 0
  - serializedVersion: 2
    index: 104
    uv:
      serializedVersion: 2
      x: 0.2109375
      y: 0.85546875
      width: 0.05859375
      height: -0.1015625
    vert:
      serializedVersion: 2
      x: 1
      y: -6.28125
      width: 15
      height: -26
    advance: 17
    flipped: 0
  - serializedVersion: 2
    index: 105
    uv:
      serializedVersion: 2
      x: 0.9609375
      y: 0.10546875
      width: 0.02734375
      height: -0.1015625
    vert:
      serializedVersion: 2
      x: 1
      y: -6.28125
      width: 7
      height: -26
    advance: 9
    flipped: 0
  - serializedVersion: 2
    index: 106
    uv:
      serializedVersion: 2
      x: 0.10546875
      y: 0.9765625
      width: 0.03515625
      height: -0.11328125
    vert:
      serializedVersion: 2
      x: -1
      y: -6.28125
      width: 9
      height: -29
    advance: 9
    flipped: 0
  - serializedVersion: 2
    index: 107
    uv:
      serializedVersion: 2
      x: 0.76171875
      y: 0.32421875
      width: 0.05859375
      height: -0.1015625
    vert:
      serializedVersion: 2
      x: 1
      y: -6.28125
      width: 15
      height: -26
    advance: 15
    flipped: 0
  - serializedVersion: 2
    index: 108
    uv:
      serializedVersion: 2
      x: 0.875
      y: 0.2109375
      width: 0.02734375
      height: -0.1015625
    vert:
      serializedVersion: 2
      x: 1
      y: -6.28125
      width: 7
      height: -26
    advance: 9
    flipped: 0
  - serializedVersion: 2
    index: 109
    uv:
      serializedVersion: 2
      x: 0.14453125
      y: 0.953125
      width: 0.0859375
      height: -0.08984375
    vert:
      serializedVersion: 2
      x: 1
      y: -10.28125
      width: 23
      height: -22
    advance: 25
    flipped: 1
  - serializedVersion: 2
    index: 110
    uv:
      serializedVersion: 2
      x: 0.90625
      y: 0.1953125
      width: 0.05859375
      height: -0.0859375
    vert:
      serializedVersion: 2
      x: 1
      y: -10.28125
      width: 15
      height: -22
    advance: 17
    flipped: 0
  - serializedVersion: 2
    index: 111
    uv:
      serializedVersion: 2
      x: 0.69140625
      y: 0.41796875
      width: 0.0625
      height: -0.08984375
    vert:
      serializedVersion: 2
      x: 0
      y: -10.28125
      width: 16
      height: -23
    advance: 16
    flipped: 0
  - serializedVersion: 2
    index: 112
    uv:
      serializedVersion: 2
      x: 0.2734375
      y: 0.69140625
      width: 0.05859375
      height: -0.09765625
    vert:
      serializedVersion: 2
      x: 1
      y: -10.28125
      width: 15
      height: -25
    advance: 17
    flipped: 0
  - serializedVersion: 2
    index: 113
    uv:
      serializedVersion: 2
      x: 0.82421875
      y: 0.3125
      width: 0.0625
      height: -0.09765625
    vert:
      serializedVersion: 2
      x: 0
      y: -10.28125
      width: 16
      height: -25
    advance: 17
    flipped: 0
  - serializedVersion: 2
    index: 114
    uv:
      serializedVersion: 2
      x: 0.3828125
      y: 0.453125
      width: 0.04296875
      height: -0.0859375
    vert:
      serializedVersion: 2
      x: 1
      y: -10.28125
      width: 11
      height: -22
    advance: 11
    flipped: 0
  - serializedVersion: 2
    index: 115
    uv:
      serializedVersion: 2
      x: 0.7578125
      y: 0.41796875
      width: 0.05859375
      height: -0.08984375
    vert:
      serializedVersion: 2
      x: 0
      y: -10.28125
      width: 15
      height: -23
    advance: 15
    flipped: 0
  - serializedVersion: 2
    index: 116
    uv:
      serializedVersion: 2
      x: 0.234375
      y: 0.953125
      width: 0.0390625
      height: -0.09375
    vert:
      serializedVersion: 2
      x: 0
      y: -8.28125
      width: 10
      height: -24
    advance: 10
    flipped: 0
  - serializedVersion: 2
    index: 117
    uv:
      serializedVersion: 2
      x: 0.890625
      y: 0.30078125
      width: 0.05859375
      height: -0.0859375
    vert:
      serializedVersion: 2
      x: 1
      y: -11.28125
      width: 15
      height: -22
    advance: 17
    flipped: 0
  - serializedVersion: 2
    index: 118
    uv:
      serializedVersion: 2
      x: 0.69140625
      y: 0.50390625
      width: 0.0625
      height: -0.08203125
    vert:
      serializedVersion: 2
      x: -1
      y: -11.28125
      width: 16
      height: -21
    advance: 14
    flipped: 0
  - serializedVersion: 2
    index: 119
    uv:
      serializedVersion: 2
      x: 0.27734375
      y: 0.78515625
      width: 0.08203125
      height: -0.08984375
    vert:
      serializedVersion: 2
      x: -1
      y: -11.28125
      width: 23
      height: -21
    advance: 21
    flipped: 1
  - serializedVersion: 2
    index: 120
    uv:
      serializedVersion: 2
      x: 0.82421875
      y: 0.3984375
      width: 0.05859375
      height: -0.08203125
    vert:
      serializedVersion: 2
      x: 0
      y: -11.28125
      width: 15
      height: -21
    advance: 14
    flipped: 0
  - serializedVersion: 2
    index: 121
    uv:
      serializedVersion: 2
      x: 0.7578125
      y: 0.515625
      width: 0.0625
      height: -0.09375
    vert:
      serializedVersion: 2
      x: -1
      y: -11.28125
      width: 16
      height: -24
    advance: 14
    flipped: 0
  - serializedVersion: 2
    index: 122
    uv:
      serializedVersion: 2
      x: 0.890625
      y: 0.38671875
      width: 0.04296875
      height: -0.08203125
    vert:
      serializedVersion: 2
      x: 0
      y: -11.28125
      width: 11
      height: -21
    advance: 11
    flipped: 0
  - serializedVersion: 2
    index: 123
    uv:
      serializedVersion: 2
      x: 0.3359375
      y: 0.578125
      width: 0.046875
      height: -0.12109375
    vert:
      serializedVersion: 2
      x: 0
      y: -6.28125
      width: 12
      height: -31
    advance: 12
    flipped: 0
  - serializedVersion: 2
    index: 124
    uv:
      serializedVersion: 2
      x: 0.82421875
      y: 0.5234375
      width: 0.01953125
      height: -0.12109375
    vert:
      serializedVersion: 2
      x: 2
      y: -6.28125
      width: 5
      height: -31
    advance: 9
    flipped: 0
  - serializedVersion: 2
    index: 125
    uv:
      serializedVersion: 2
      x: 0.9375
      y: 0.42578125
      width: 0.046875
      height: -0.12109375
    vert:
      serializedVersion: 2
      x: 0
      y: -6.28125
      width: 12
      height: -31
    advance: 12
    flipped: 0
  - serializedVersion: 2
    index: 126
    uv:
      serializedVersion: 2
      x: 0.84765625
      y: 0.46484375
      width: 0.03125
      height: -0.0625
    vert:
      serializedVersion: 2
      x: 0
      y: -15.28125
      width: 16
      height: -8
    advance: 17
    flipped: 1
  m_Texture: {fileID: 2800000, guid: 028bad58250ac074990743f898e40d72, type: 3}
  m_KerningValues:
  - first:
      40: 65
    second: 1
  - first:
      50: 52
    second: -1
  - first:
      52: 49
    second: -1
  - first:
      52: 55
    second: -1
  - first:
      53: 49
    second: -1
  - first:
      53: 50
    second: -1
  - first:
      53: 55
    second: -1
  - first:
      55: 49
    second: 1
  - first:
      55: 52
    second: -1
  - first:
      55: 55
    second: 1
  - first:
      65: 41
    second: 1
  - first:
      65: 44
    second: 1
  - first:
      65: 46
    second: 1
  - first:
      65: 47
    second: 1
  - first:
      65: 65
    second: 1
  - first:
      65: 74
    second: 1
  - first:
      65: 84
    second: -2
  - first:
      65: 86
    second: -1
  - first:
      65: 87
    second: -1
  - first:
      65: 88
    second: 1
  - first:
      65: 89
    second: -2
  - first:
      65: 90
    second: 1
  - first:
      65: 93
    second: 1
  - first:
      65: 120
    second: 1
  - first:
      65: 122
    second: 1
  - first:
      65: 125
    second: 1
  - first:
      70: 44
    second: -2
  - first:
      70: 46
    second: -2
  - first:
      70: 65
    second: -1
  - first:
      70: 86
    second: 1
  - first:
      70: 87
    second: 1
  - first:
      70: 89
    second: 1
  - first:
      75: 44
    second: 1
  - first:
      75: 46
    second: 1
  - first:
      75: 65
    second: 1
  - first:
      75: 67
    second: -1
  - first:
      75: 79
    second: -1
  - first:
      75: 81
    second: -1
  - first:
      75: 90
    second: 1
  - first:
      76: 44
    second: 1
  - first:
      76: 46
    second: 1
  - first:
      76: 65
    second: 1
  - first:
      76: 84
    second: -2
  - first:
      76: 86
    second: -1
  - first:
      76: 87
    second: -1
  - first:
      76: 89
    second: -2
  - first:
      76: 121
    second: -1
  - first:
      80: 44
    second: -4
  - first:
      80: 46
    second: -4
  - first:
      80: 47
    second: -2
  - first:
      80: 65
    second: -1
  - first:
      80: 74
    second: -1
  - first:
      84: 44
    second: -3
  - first:
      84: 45
    second: -2
  - first:
      84: 46
    second: -3
  - first:
      84: 47
    second: -2
  - first:
      84: 65
    second: -1
  - first:
      84: 74
    second: -1
  - first:
      84: 86
    second: 1
  - first:
      84: 87
    second: 1
  - first:
      84: 89
    second: 1
  - first:
      84: 97
    second: -1
  - first:
      84: 99
    second: -1
  - first:
      84: 101
    second: -1
  - first:
      84: 118
    second: 1
  - first:
      84: 119
    second: 1
  - first:
      84: 121
    second: 1
  - first:
      86: 44
    second: -1
  - first:
      86: 46
    second: -1
  - first:
      86: 47
    second: -1
  - first:
      86: 74
    second: -1
  - first:
      86: 89
    second: 1
  - first:
      86: 121
    second: 1
  - first:
      87: 44
    second: -1
  - first:
      87: 46
    second: -1
  - first:
      87: 47
    second: -1
  - first:
      87: 74
    second: -1
  - first:
      87: 89
    second: 1
  - first:
      88: 44
    second: 1
  - first:
      88: 46
    second: 1
  - first:
      88: 65
    second: 1
  - first:
      88: 74
    second: 1
  - first:
      89: 44
    second: -3
  - first:
      89: 46
    second: -3
  - first:
      89: 47
    second: -3
  - first:
      89: 65
    second: -2
  - first:
      89: 74
    second: -1
  - first:
      89: 97
    second: -1
  - first:
      89: 99
    second: -1
  - first:
      89: 100
    second: -1
  - first:
      89: 101
    second: -1
  - first:
      89: 103
    second: -1
  - first:
      89: 111
    second: -1
  - first:
      89: 113
    second: -1
  - first:
      89: 115
    second: -1
  - first:
      90: 44
    second: 1
  - first:
      90: 46
    second: 1
  - first:
      90: 65
    second: 1
  - first:
      90: 121
    second: 1
  - first:
      91: 65
    second: 1
  - first:
      102: 118
    second: 1
  - first:
      102: 119
    second: 1
  - first:
      102: 121
    second: 1
  - first:
      114: 44
    second: -2
  - first:
      114: 46
    second: -2
  - first:
      114: 102
    second: 1
  - first:
      114: 116
    second: 1
  - first:
      114: 118
    second: 1
  - first:
      114: 119
    second: 1
  - first:
      114: 121
    second: 1
  - first:
      116: 44
    second: 1
  - first:
      116: 46
    second: 1
  - first:
      116: 118
    second: 1
  - first:
      116: 121
    second: 1
  - first:
      116: 122
    second: 1
  - first:
      118: 44
    second: -1
  - first:
      118: 46
    second: -1
  - first:
      118: 102
    second: 1
  - first:
      118: 116
    second: 1
  - first:
      118: 121
    second: 1
  - first:
      119: 102
    second: 1
  - first:
      119: 121
    second: 1
  - first:
      120: 44
    second: 1
  - first:
      120: 46
    second: 1
  - first:
      121: 44
    second: -1
  - first:
      121: 46
    second: -1
  - first:
      121: 102
    second: 1
  - first:
      121: 116
    second: 1
  - first:
      121: 118
    second: 1
  - first:
      121: 120
    second: 1
  - first:
      122: 44
    second: 1
  - first:
      122: 46
    second: 1
  - first:
      122: 118
    second: 1
  - first:
      122: 119
    second: 1
  - first:
      122: 121
    second: 1
  - first:
      122: 122
    second: 1
  - first:
      123: 65
    second: 1
  m_PixelScale: 0.1
  m_FontData: 
  m_FontSize: 32
  m_Ascent: 32.28125
  m_DefaultStyle: 0
  m_FontNames:
  - Impact
  m_FallbackFonts: []
  m_FontRenderingMode: 0
