%YAML 1.1
%TAG !u! tag:unity3d.com,2011:
--- !u!114 &11400000
MonoBehaviour:
  m_ObjectHideFlags: 0
  m_PrefabParentObject: {fileID: 0}
  m_PrefabInternal: {fileID: 0}
  m_GameObject: {fileID: 0}
  m_Enabled: 1
  m_EditorHideFlags: 0
  m_Script: {fileID: -1172056025, guid: df55f395b91cd1e4c8a117abb7fb4631, type: 3}
  m_Name: Col Left
  m_EditorClassIdentifier: 
  version: 302e302e352e30
  PosX: 0
  PosY: 0
  PosZ: -0.1
  PosOffsetX: 0
  PosOffsetY: 0
  PosOffsetZ: 0
  ResizeWidthTo: 1
  Width: 8
  Width_IsStyled: 1
  WidthMin: 0
  WidthMax: 1920
  WidthMinMax_IsStyled: 1
  WidthPercent: 0
  ResizeHeightTo: 0
  Height: 145
  Height_IsStyled: 1
  HeightMin: 0
  HeightMax: 1080
  HeightMinMax_IsStyled: 1
  HeightPercent: 0
  AlignHoriTo: 0
  AlignVertTo: 0
  PosAlignHoriVerti_IsStyled: 1
  Margin:
    top: 0
    bottom: 0
    left: 0
    right: 0
  Margin_IsStyled: 1
  Padding:
    top: 0
    bottom: 0
    left: 0
    right: 0
  Padding_IsStyled: 1
  ClipChildren: 0
  HideChildren: 0
  OrientChildren: 0
